INDEX VERSION 1.129+/home/firefly/java/.metadata/.plugins/org.eclipse.jdt.core
2517547992.index
3530540584.index
2013321972.index
925982370.index
1367924490.index
3485262699.index
3066711521.index
1234216054.index
1089239932.index
3499750860.index
252176994.index
3883508318.index
3539432263.index
2744878784.index
3512161136.index
2212791221.index
247923856.index
4118765929.index
2966005625.index
39089954.index
502732891.index
813341167.index
2440757193.index
3837095497.index
2487747969.index
821608291.index
2253745042.index
2014927612.index
1290467724.index
2359322674.index
1628687906.index
3231929334.index
