39
40
5
121
8
51
4
13
108
105
107
48
12
25
11
89
107
110
64
10
2
70
84
38
85
75
119
63
107
74
53
112
96
119
20
30
115
59
90
58
19
93
97
24
5
103
33
101
108
103
25
92
8
1
85
70
57
71
108
75
30
73
105
118
90
117
99
44
11
82
71
86
60
35
7
124
117
57
62
21
98
36
71
82
61
51
45
90
41
19
110
36
109
101
23
120
61
76
17
31
16
62
14
22
15
100
73
100
96
69
83
33
95
38
40
112
58
26
113
36
15
22
31
59
63
87
42
4
62
26
116
78
17
48
51
19
3
86
23
64
42
13
123
16
4
56
96
117
41
122
99
107
34
44
48
13
57
90
52
88
59
70
48
48
50
59
2
27
92
25
30
76
8
66
8
27
51
123
88
107
35
122
107
96
108
77
81
7
59
46
79
104
40
81
73
92
58
114
5
4
73
93
3
52
75
110
31
60
38
23
98
93
0
77
33
60
96
71
104
22
106
60
30
6
22
62
70
27
41
60
17
70
90
31
16
50
40
68
103
82
89
59
12
100
0
108
19
118
38
79
52
19
48
123
9
44
86
53
80
55
104
60
117
7
48
121
1
94
91
64
80
71
53
16
86
58
69
54
37
123
123
12
6
76
51
56
59
92
66
107
122
72
111
16
40
86
123
66
79
58
77
86
106
111
79
100
109
89
13
74
24
116
95
48
53
92
96
59
22
123
102
56
124
17
64
88
10
0
18
8
30
81
32
99
85
65
25
115
29
78
56
121
93
124
41
88
94
28
123
42
18
39
94
84
45
0
69
33
100
26
94
76
77
41
110
64
119
121
79
65
106
89
108
25
35
89
122
13
88
41
5
112
75
9
29
83
124
87
80
98
115
90
29
35
82
38
79
67
111
27
7
115
10
3
40
30
78
5
61
62
3
35
85
10
69
93
31
27
30
112
15
122
2
52
47
76
107
35
116
14
1
84
89
56
74
31
88
60
113
81
102
63
18
41
22
115
78
16
27
41
50
74
17
85
30
61
50
37
35
64
36
73
37
27
103
11
91
79
42
23
43
94
16
29
80
95
67
101
63
31
118
74
71
124
97
43
100
50
92
36
10
14
34
117
100
57
16
78
34
29
1
3
7
49
55
89
119
123
124
65
104
0
17
56
91
12
78
36
84
14
40
106
67
65
23
41
69
3
11
92
60
6
120
123
45
21
116
58
44
40
112
62
50
74
46
118
10
41
70
53
66
63
100
82
85
77
77
87
106
31
67
13
77
48
113
101
5
39
71
8
114
47
43
24
66
17
28
60
103
24
114
23
59
36
42
111
120
65
31
101
93
13
41
116
29
80
22
10
98
14
111
20
118
83
100
67
53
65
113
123
10
62
7
14
34
56
83
22
30
88
74
83
85
53
105
79
4
117
79
74
36
55
74
75
10
57
97
6
104
16
97
120
14
47
69
60
121
105
57
101
111
15
79
123
87
43
24
109
121
67
98
61
108
56
122
93
46
26
73
73
70
123
100
25
77
47
105
35
75
58
21
55
110
114
5
107
119
118
28
96
85
3
52
73
73
88
69
108
34
89
65
60
64
67
94
26
5
72
115
90
67
88
50
39
69
68
104
26
40
103
72
41
23
72
4
96
80
72
73
81
4
75
39
119
89
59
100
37
43
104
119
17
8
63
121
70
45
53
53
19
78
7
24
95
2
91
40
60
91
94
60
112
109
106
83
23
24
88
44
76
63
97
70
83
7
27
80
22
98
102
16
124
68
115
54
25
105
25
77
87
16
49
108
74
26
124
117
3
110
68
25
32
121
35
66
59
11
25
40
82
89
104
84
34
58
12
40
65
109
92
119
68
111
4
47
59
28
93
63
87
67
46
46
123
108
86
103
90
89
101
85
102
61
97
113
124
99
56
46
87
34
14
92
53
77
122
61
110
9
123
70
60
45
78
75
34
122
85
36
14
110
52
11
28
17
3
98
80
122
53
75
87
103
118
74
124
108
88
112
23
69
52
20
66
118
55
97
29
81
72
94
106
29
48
105
36
77
66
59
93
58
23
25
70
30
18
41
84
84
81
60
40
61
102
43
90
42
91
62
108
39
51
56
35
16
27
11
74
11
96
30
0
91
113
72
69
3
39
80
89
98
115
121
119
97
90
57
30
117
0
45
56
39
47
94
23
104
44
78
35
20
97
73
93
21
122
85
109
49
98
21
71
103
92
61
123
7
106
28
2
66
103
96
50
33
73
109
64
65
30
50
47
74
44
111
60
115
119
120
20
72
8
112
110
48
116
20
18
111
123
63
31
15
17
108
51
64
117
118
101
73
104
22
27
45
52
11
19
60
90
20
78
91
103
79
50
119
90
106
122
119
30
99
100
21
94
44
97
70
92
32
96
93
7
121
35
62
97
68
50
29
105
87
83
74
97
63
31
117
49
48
69
64
7
50
12
17
67
96
20
120
4
37
38
4
36
14
98
9
87
57
87
23
106
121
33
5
62
18
81
99
98
62
16
113
106
3
6
50
9
61
106
75
78
88
21
49
91
6
94
9
51
91
70
32
94
32
14
77
50
99
12
16
26
0
75
83
119
90
100
75
84
61
118
54
87
33
90
123
65
53
43
31
75
46
11
41
7
79
78
48
35
81
71
88
15
18
37
61
114
44
85
33
86
72
74
79
20
105
122
6
105
18
20
87
102
36
48
67
110
84
68
95
82
120
103
36
3
49
8
41
62
55
98
30
124
43
72
97
104
30
3
101
38
58
86
76
54
110
21
19
9
79
119
48
108
31
53
97
60
115
9
83
29
74
96
47
117
22
46
123
46
59
46
61
97
77
118
16
118
26
89
47
61
16
76
22
60
1
86
77
45
51
21
61
123
98
80
93
51
96
98
30
60
10
97
48
95
80
80
73
90
30
0
42
16
118
106
103
45
77
56
11
24
50
117
38
19
106
73
106
101
54
68
40
2
80
119
79
108
43
62
14
45
30
81
112
104
122
21
30
64
50
40
42
41
71
8
102
123
32
69
48
75
82
57
73
83
24
93
115
11
97
48
23
37
3
113
61
115
80
121
69
86
108
56
4
20
42
57
87
14
23
24
122
104
66
108
1
50
105
114
43
38
74
86
28
88
90
97
51
121
79
47
102
82
69
13
33
71
65
84
38
84
34
49
109
32
97
17
108
65
121
64
105
122
38
121
85
124
18
53
28
95
19
106
116
40
120
79
60
117
64
62
10
95
90
7
44
108
16
94
43
72
25
16
118
44
20
36
94
108
50
3
70
11
66
46
121
100
17
89
113
21
23
90
101
47
17
112
59
35
118
54
37
55
35
26
112
7
14
116
75
77
22
42
4
7
77
37
87
60
21
102
25
96
22
11
122
105
77
80
121
58
96
26
78
122
79
36
25
74
4
53
92
100
114
14
24
47
91
80
107
66
17
62
63
20
83
6
58
37
33
55
70
29
124
121
34
59
57
67
9
17
52
3
107
45
24
100
3
82
115
46
56
53
13
91
31
1
49
15
36
6
86
8
37
26
117
48
17
99
99
25
71
86
35
84
52
27
89
71
20
11
55
39
21
37
99
73
72
37
51
27
77
17
83
28
76
105
23
117
6
4
19
82
121
91
48
35
57
18
41
23
86
52
12
102
3
52
23
48
82
27
96
61
58
24
63
38
83
55
36
79
39
23
76
23
74
86
49
62
82
21
79
92
53
30
98
18
99
121
32
58
92
66
30
46
95
16
82
95
33
112
93
46
8
109
32
61
0
120
76
59
70
0
12
80
41
60
94
56
59
119
26
87
81
114
89
43
76
31
123
18
112
38
8
114
113
20
65
35
6
109
115
15
27
51
66
87
90
83
21
32
24
59
59
40
91
66
99
14
29
39
99
46
48
97
114
63
44
64
9
117
59
93
60
106
3
105
61
10
19
75
77
58
85
70
33
52
116
40
45
78
95
11
21
36
100
20
21
124
27
56
48
114
78
110
6
29
102
38
64
25
79
89
100
116
90
59
82
22
19
41
91
123
85
94
27
97
44
117
84
120
98
109
93
26
65
123
67
45
115
78
28
72
96
63
53
72
69
87
17
35
108
11
63
54
59
91
81
59
48
83
18
113
32
35
34
87
36
84
72
26
47
57
53
80
117
40
42
49
106
119
32
7
56
4
120
106
35
24
33
51
34
83
69
102
11
71
79
39
1
3
77
22
116
68
121
118
105
107
88
11
73
33
119
100
121
108
53
121
67
8
122
50
75
6
79
42
15
81
54
10
108
66
15
65
29
77
91
17
17
62
63
21
48
33
120
97
76
12
82
102
36
40
66
33
105
7
3
70
13
18
47
56
107
7
23
97
95
123
98
20
102
31
92
95
34
32
103
34
90
77
34
33
79
21
26
1
26
16
77
81
6
72
25
88
102
117
70
122
48
8
89
65
23
100
101
85
66
78
79
74
25
109
81
59
78
3
64
73
77
107
57
38
78
70
13
46
119
39
12
117
98
62
48
109
115
115
53
20
73
30
58
100
77
44
43
108
47
124
22
1
72
97
5
91
32
68
108
15
100
108
91
124
54
34
119
72
26
72
43
79
123
103
0
33
11
1
43
91
37
73
10
87
30
9
15
115
3
100
77
74
38
60
13
23
19
49
79
108
42
85
85
85
48
39
81
6
57
15
74
39
88
29
33
75
100
49
31
117
113
40
63
96
102
3
95
67
117
55
111
47
35
65
64
44
82
27
83
89
45
56
21
110
7
71
89
81
16
122
93
80
33
24
75
41
87
49
88
113
31
34
21
31
49
56
52
117
96
110
36
67
109
36
80
92
116
79
76
48
57
39
53
56
94
35
12
23
105
93
112
107
109
87
37
75
106
59
106
22
27
50
45
29
72
49
29
13
12
106
69
41
115
104
117
25
20
105
90
64
9
41
90
44
113
84
24
18
117
24
71
44
80
78
48
8
111
92
61
33
17
117
31
108
109
115
75
91
2
8
68
58
63
81
31
8
15
111
36
26
5
97
51
113
68
120
10
80
111
66
60
55
16
92
5
115
65
31
20
102
59
91
113
65
99
66
2
51
19
15
25
51
117
97
63
89
7
93
116
92
39
42
101
72
106
113
109
98
105
54
115
9
65
8
20
61
88
103
68
44
61
49
43
92
118
56
73
85
66
57
28
47
37
51
69
65
57
106
75
17
70
26
86
70
27
103
37
73
72
17
90
75
80
25
74
120
24
31
81
58
55
84
16
95
0
43
40
101
99
6
80
98
112
31
8
15
60
60
89
35
74
108
5
107
22
55
119
103
103
22
52
42
59
35
14
36
97
53
105
75
105
120
12
58
28
124
72
38
72
123
115
120
4
58
81
89
82
115
58
13
3
123
56
100
52
41
109
50
78
19
78
111
49
124
38
98
108
83
33
98
93
107
12
67
89
70
26
87
73
23
2
122
75
39
14
22
11
111
106
24
74
103
21
73
22
65
107
38
48
47
121
92
99
99
34
114
123
50
123
77
59
84
41
82
91
49
103
14
117
26
115
34
82
43
109
115
115
77
71
110
18
39
92
69
110
33
54
124
47
109
46
119
103
5
35
12
45
49
94
87
68
100
73
74
90
8
104
64
92
91
35
120
95
96
106
62
105
45
69
0
117
75
38
58
29
94
22
1
35
59
41
122
38
63
98
102
32
72
3
63
68
64
91
101
0
123
97
57
8
30
60
101
27
48
116
117
90
8
52
0
93
124
3
37
82
82
64
9
123
7
100
6
89
50
4
20
31
34
13
118
10
38
103
6
107
44
52
61
102
101
40
74
124
10
103
63
6
43
15
52
1
19
20
99
54
96
102
36
113
117
11
61
77
87
42
36
76
113
120
105
13
124
93
74
76
32
25
119
63
39
25
72
72
38
68
103
105
76
16
76
90
7
105
16
85
7
19
12
2
13
105
112
23
46
69
78
5
72
31
52
45
13
3
64
43
114
14
103
104
21
54
48
25
16
14
4
120
58
84
103
19
103
79
43
121
4
19
98
57
86
19
64
56
70
51
32
107
66
100
81
35
64
41
78
115
122
47
47
2
14
76
42
103
23
100
101
110
28
91
62
86
3
50
124
48
36
31
82
26
33
42
84
0
95
43
117
34
24
100
115
60
40
102
27
115
63
118
104
79
68
30
2
27
13
46
21
15
6
41
91
46
56
10
107
13
5
30
61
12
73
12
103
46
7
21
103
0
70
67
6
85
52
117
76
48
51
99
28
60
51
3
113
79
80
28
78
23
36
41
15
41
36
8
123
84
3
102
119
95
71
54
108
68
95
87
1
118
9
86
86
5
109
9
14
104
71
33
51
92
63
21
84
34
85
14
86
64
85
53
33
52
85
112
11
93
102
85
63
31
13
57
15
78
31
41
100
56
58
118
35
111
73
83
69
83
60
81
85
9
86
66
21
41
6
99
17
111
116
87
40
53
53
87
47
59
7
93
60
62
122
69
92
10
4
18
48
9
102
21
6
105
122
84
22
68
25
100
88
57
75
81
85
73
59
12
70
49
25
10
18
109
64
85
83
103
94
8
74
103
7
109
100
119
24
26
2
124
83
113
80
87
6
121
5
119
14
53
13
42
42
48
114
73
40
102
96
20
85
71
56
52
23
62
26
54
84
112
7
74
45
59
61
50
23
113
22
10
60
21
54
110
113
81
13
28
32
47
8
0
21
124
12
76
22
98
100
106
52
7
37
7
114
93
19
81
16
24
50
105
109
98
15
121
3
52
18
4
3
83
6
46
53
64
4
21
40
22
94
33
104
122
28
79
109
114
13
101
32
4
72
96
99
108
34
59
46
30
109
10
14
91
109
118
107
112
30
114
39
105
28
18
5
56
82
107
67
16
45
24
1
110
53
3
113
30
39
98
78
70
102
16
108
77
97
24
77
13
114
118
29
36
95
115
114
63
40
65
24
120
72
2
29
121
90
6
63
108
55
5
3
116
75
24
124
39
114
81
123
124
119
111
11
18
94
53
93
51
39
102
68
14
4
57
120
94
92
30
55
55
87
20
111
8
118
88
93
124
75
36
82
60
39
27
78
17
64
96
37
56
11
120
11
32
18
112
98
116
54
28
30
83
91
30
74
45
8
58
17
83
23
88
86
63
89
99
95
30
51
120
29
102
12
70
18
121
117
86
42
18
28
68
57
39
43
79
55
111
17
107
91
30
70
35
1
35
46
123
122
102
122
47
81
10
103
14
64
118
24
53
5
3
20
11
100
60
12
95
5
88
77
8
2
32
84
55
58
103
69
42
82
119
101
0
106
98
39
10
18
61
66
114
124
110
84
108
116
37
120
43
54
16
59
5
70
7
88
18
60
11
53
119
72
102
9
52
58
109
29
101
51
123
37
79
38
72
33
44
37
82
23
97
2
0
29
23
13
111
96
22
124
67
90
68
79
38
88
24
66
53
66
15
112
69
124
93
109
91
31
10
92
6
80
23
62
39
17
54
48
91
69
117
78
112
53
105
90
120
86
7
87
82
93
73
37
4
67
15
44
121
98
72
32
45
44
101
37
5
82
25
43
112
38
34
110
123
24
42
14
26
91
51
40
20
101
118
55
29
51
110
10
67
49
101
116
71
71
62
66
87
107
76
93
75
39
33
3
42
66
81
71
26
73
48
122
79
43
86
10
8
93
15
24
47
123
15
106
115
82
78
71
27
57
45
57
26
6
38
63
20
104
44
121
26
29
81
34
119
120
86
119
82
32
36
105
93
110
65
102
8
121
69
72
71
124
48
95
81
100
119
70
93
90
90
58
8
16
14
42
87
83
60
43
10
1
105
89
120
95
29
7
103
79
104
78
120
119
96
101
34
35
43
122
26
81
13
95
32
15
35
65
105
13
17
46
44
5
1
3
65
2
106
26
0
65
17
18
13
124
112
5
22
37
112
96
79
97
62
100
15
29
14
55
107
112
111
7
105
14
109
46
29
113
38
73
0
35
26
14
89
119
44
38
29
55
14
79
82
41
51
96
100
32
32
33
35
52
89
115
107
2
15
79
90
60
113
46
117
25
71
77
17
65
10
102
96
17
46
1
63
32
37
21
13
17
44
29
105
1
121
12
83
91
55
77
60
46
43
28
93
44
88
74
10
43
65
92
40
56
9
56
29
120
106
114
117
107
71
29
23
45
24
119
41
124
66
68
23
53
11
124
79
60
13
67
61
89
83
82
119
50
8
25
37
41
66
30
95
26
83
4
121
4
51
121
36
65
18
81
105
114
40
40
25
23
97
73
0
115
50
39
5
5
51
104
65
17
115
89
96
2
56
0
0
42
66
53
44
77
116
108
28
27
60
102
51
9
48
115
109
6
85
20
117
51
1
92
17
47
114
83
16
105
26
42
7
24
80
61
93
53
23
94
97
90
116
19
106
55
18
89
99
77
63
58
84
53
7
85
28
85
48
27
6
69
39
35
86
14
71
41
32
115
5
19
108
119
98
15
70
7
22
32
20
40
50
47
74
42
48
67
0
61
46
27
8
19
88
46
52
62
68
97
69
118
69
73
77
66
22
29
65
28
119
73
97
24
117
56
40
78
68
59
11
39
76
52
55
22
20
31
121
51
10
71
28
26
65
38
51
81
123
77
31
34
7
122
59
18
87
77
62
108
33
55
24
60
8
50
10
70
108
55
2
85
105
109
49
27
78
48
69
82
53
110
98
84
123
76
98
47
36
35
25
47
4
19
7
7
60
41
16
103
53
36
120
75
84
13
22
12
47
113
41
40
92
110
88
71
118
104
112
25
46
26
110
82
0
113
1
53
62
114
110
118
28
8
71
60
57
18
94
90
74
33
18
102
56
33
111
102
16
74
111
92
74
33
41
27
34
39
113
30
99
1
58
96
50
105
61
76
92
58
111
110
79
107
87
93
36
92
94
104
77
52
92
118
21
18
123
2
5
51
13
1
59
44
17
38
27
0
110
105
81
40
117
57
73
120
51
124
118
105
16
42
53
38
97
76
61
117
92
7
36
120
70
35
17
57
73
36
28
93
35
109
118
21
32
83
62
57
63
55
50
49
25
110
3
8
81
8
87
44
38
70
27
44
36
89
105
87
116
121
70
70
64
57
15
113
101
104
120
98
110
121
75
22
57
58
123
84
56
48
116
76
78
123
20
117
98
73
27
1
109
34
90
45
12
114
103
87
100
36
47
119
84
92
109
81
121
11
96
35
55
26
97
110
96
124
71
105
23
96
14
12
33
65
112
96
120
106
9
96
63
36
83
122
112
74
47
119
67
94
42
72
98
46
91
87
18
106
118
86
123
57
67
32
46
33
107
4
71
14
111
77
25
31
67
28
37
39
8
61
11
100
104
20
15
121
2
64
111
86
90
27
14
43
15
77
117
6
61
16
40
49
84
27
50
80
6
42
112
62
124
30
2
45
82
122
8
121
22
90
116
92
38
64
43
25
113
80
71
0
85
33
84
29
93
19
13
33
39
67
96
104
36
73
123
121
64
2
46
45
109
26
71
4
34
0
40
106
63
117
1
51
47
123
106
101
45
64
7
15
71
119
79
41
23
65
15
57
56
122
69
37
54
116
41
39
121
66
31
106
95
70
69
45
122
116
95
43
102
73
39
72
27
107
2
71
5
26
19
114
89
4
61
106
63
19
66
70
36
104
100
99
9
12
86
89
57
37
97
86
0
27
48
8
17
72
116
61
76
56
15
101
121
98
17
121
56
99
91
33
46
5
94
57
8
20
16
35
119
94
107
16
50
1
4
33
117
45
83
121
0
83
98
23
32
38
79
3
47
34
2
20
0
11
53
26
47
109
6
47
44
47
0
12
70
113
38
74
79
0
11
0
65
97
74
103
114
33
79
89
121
98
94
108
123
52
60
8
24
108
88
29
21
76
42
85
49
106
96
80
52
72
114
83
66
72
53
43
117
53
86
7
28
84
57
69
108
85
87
71
112
110
80
49
90
56
47
13
11
26
51
88
65
33
27
123
54
39
80
10
60
44
113
91
14
110
50
81
106
47
65
41
11
44
116
18
65
47
19
88
25
14
56
39
62
14
19
89
60
74
61
22
124
76
5
41
79
76
77
72
1
21
113
106
115
31
11
77
60
31
6
51
120
60
107
48
52
120
61
73
105
22
107
23
107
54
106
72
22
66
10
91
112
13
92
38
62
59
11
98
60
101
14
74
24
109
85
96
18
18
24
49
121
80
26
62
103
3
48
56
34
111
25
121
69
25
109
37
93
114
5
81
85
87
49
110
53
16
84
51
117
33
51
52
106
32
75
39
71
113
14
82
111
44
108
88
14
119
83
67
90
5
72
54
52
31
93
96
31
11
88
84
14
66
8
38
6
52
105
52
56
88
34
100
107
33
98
37
83
88
66
55
103
29
73
75
27
96
81
93
94
36
21
112
108
82
11
80
34
118
14
29
17
53
47
115
74
96
54
123
0
116
3
18
62
21
88
25
26
12
101
52
115
40
96
52
4
51
111
22
122
81
72
104
116
46
43
14
95
49
44
71
74
24
79
80
21
91
22
91
7
69
96
96
10
78
109
118
76
23
73
118
90
85
4
37
13
50
30
124
28
8
78
107
14
120
102
24
44
106
69
66
82
25
57
53
91
1
3
30
96
56
109
112
121
98
62
100
16
23
8
15
21
108
30
91
27
51
89
72
2
9
87
22
9
86
43
5
53
71
106
47
10
60
55
41
111
65
89
3
41
86
22
83
99
16
105
51
30
83
26
19
29
49
25
120
4
36
72
9
84
33
48
20
24
75
120
120
110
85
123
50
75
40
74
57
70
45
76
57
108
89
110
121
76
78
76
109
57
87
119
61
117
108
51
89
98
14
65
54
76
90
32
13
30
82
77
44
17
3
1
30
31
124
35
104
11
0
68
7
86
115
107
72
34
48
31
69
58
1
100
41
2
84
77
26
38
39
34
76
20
115
49
113
26
1
88
45
4
58
35
31
6
89
29
98
50
10
98
47
6
77
0
102
47
13
97
72
9
10
78
52
90
73
17
124
104
37
106
111
35
86
90
53
77
24
76
98
52
67
102
71
112
19
60
50
50
57
119
113
68
36
19
43
87
49
98
7
40
17
32
102
4
38
5
31
24
85
99
67
3
94
13
62
88
19
53
32
97
16
114
8
95
4
59
19
86
48
115
100
64
18
83
123
4
99
24
21
110
78
32
101
33
49
37
101
123
17
53
120
64
16
69
122
54
76
27
66
27
99
7
36
71
17
45
99
39
11
49
77
98
39
24
76
62
29
88
97
102
78
53
33
71
50
91
88
77
19
110
65
60
64
28
109
2
35
31
98
17
54
93
14
18
87
77
49
59
25
90
116
3
3
120
112
105
70
26
56
2
73
35
23
11
17
42
92
38
17
49
72
71
44
32
73
40
54
121
60
38
36
42
35
69
112
6
11
3
119
7
26
39
18
117
52
21
32
75
36
41
102
76
2
35
17
63
45
88
93
16
93
13
7
43
35
52
73
75
111
22
46
98
107
26
93
100
77
65
68
9
1
82
12
8
101
39
105
63
90
63
17
102
117
64
18
103
47
14
41
111
113
119
89
91
27
29
109
5
51
14
87
111
106
121
35
94
83
90
118
48
48
82
63
18
55
86
45
3
14
14
75
123
65
101
106
123
30
37
34
95
92
11
24
24
52
66
121
42
27
107
113
8
0
89
69
9
92
1
11
91
15
76
97
63
1
74
39
52
59
35
75
77
2
58
9
93
3
111
115
98
19
105
101
19
102
61
21
96
69
31
12
22
88
51
45
31
120
122
106
107
15
54
81
15
25
24
39
4
54
118
33
68
9
39
119
11
37
25
80
103
95
106
107
65
37
46
17
80
49
13
26
43
38
16
68
109
108
15
47
110
103
4
31
99
78
25
61
4
59
33
84
42
65
102
64
114
53
106
30
61
20
55
6
54
9
19
104
7
28
88
43
52
70
54
47
4
57
121
24
52
1
49
60
55
16
74
110
66
109
6
44
108
118
4
89
27
64
70
112
41
106
80
110
93
20
35
108
97
30
110
88
88
38
52
69
66
97
13
14
55
114
3
71
68
46
105
3
20
106
114
51
32
36
51
20
102
101
104
65
26
81
10
61
10
19
25
62
114
32
100
39
66
49
113
65
114
5
99
35
95
5
53
66
102
24
8
22
78
108
84
1
92
97
95
98
50
46
38
33
88
22
11
54
26
61
112
45
3
5
94
21
102
64
95
31
118
83
63
62
84
6
122
87
0
18
87
60
114
61
5
43
85
123
94
49
72
110
12
50
47
39
23
36
64
114
50
115
113
9
62
65
101
87
10
105
20
50
3
15
13
15
81
80
115
0
55
78
3
111
47
39
78
55
110
85
40
54
8
47
15
109
110
32
82
105
97
58
87
67
43
90
45
34
34
69
8
52
119
71
109
114
75
23
33
8
74
59
112
36
18
43
118
89
11
1
51
69
22
14
71
68
113
43
77
80
109
88
62
73
121
44
40
101
49
48
1
42
117
44
73
118
103
94
32
109
77
44
112
90
115
3
0
17
38
67
49
26
5
58
59
71
14
43
6
42
66
12
28
98
72
48
72
23
59
111
115
59
14
32
90
106
37
91
19
7
88
67
89
39
63
53
8
98
115
54
105
86
70
111
120
118
105
122
6
95
52
41
18
90
61
114
46
22
88
0
87
66
34
92
50
60
35
41
73
83
69
84
65
58
122
91
37
86
79
95
59
71
88
72
110
4
41
101
90
74
35
20
69
5
107
8
111
30
122
32
99
44
59
96
45
87
101
75
44
56
48
30
103
85
3
63
90
93
33
53
16
54
36
53
10
61
43
117
5
11
72
119
2
7
7
106
53
88
67
82
36
117
44
77
25
29
33
27
2
97
97
109
97
115
23
3
109
86
99
9
57
98
27
43
48
120
36
92
71
12
104
95
97
124
27
52
35
99
105
66
45
98
118
96
75
44
59
28
1
0
114
34
19
124
31
99
41
102
7
99
99
6
6
98
26
115
39
56
81
10
22
122
77
26
78
101
55
114
36
63
58
6
90
64
66
8
48
19
27
10
22
86
49
61
96
37
1
119
110
52
121
43
64
121
118
30
120
70
32
108
59
22
99
0
121
82
53
90
58
119
49
66
103
27
85
21
102
88
16
104
33
79
48
11
84
15
98
117
103
63
26
84
92
42
74
62
86
1
89
119
14
43
99
71
67
99
55
83
73
53
43
66
32
16
73
85
35
9
75
96
114
2
96
54
124
37
78
40
84
113
109
116
25
40
33
101
30
12
39
81
120
90
107
78
117
66
35
112
120
79
106
35
70
91
68
97
110
25
65
9
9
15
31
36
8
98
68
59
77
22
65
51
22
13
19
53
31
73
21
11
86
42
96
111
28
60
96
85
123
44
97
117
9
84
70
122
77
72
116
115
20
28
78
71
90
45
60
5
75
124
116
98
119
51
24
10
25
55
15
89
85
118
79
98
114
45
99
110
92
27
76
88
1
37
124
115
78
2
50
61
33
99
102
56
63
95
82
30
64
55
107
96
3
102
94
118
43
87
103
29
39
107
78
118
38
87
75
9
92
97
47
72
77
43
1
67
52
101
89
86
12
93
70
78
33
62
43
119
28
58
55
124
31
5
69
56
41
80
40
88
102
82
64
86
78
7
33
99
51
113
123
53
50
37
34
6
34
30
84
43
50
46
0
92
114
74
89
97
0
82
57
116
115
66
39
60
17
37
43
66
76
85
8
20
13
7
31
123
29
50
24
101
113
85
24
81
60
42
76
44
7
79
45
14
84
7
78
82
108
69
53
10
114
111
55
15
28
25
35
15
5
91
95
83
4
44
13
19
74
10
2
107
34
20
68
18
25
115
63
40
62
73
86
58
21
37
29
111
86
26
80
117
85
65
43
52
42
122
96
73
40
100
18
3
119
102
87
87
32
70
46
75
50
102
20
91
108
25
124
5
70
99
97
67
26
74
65
121
10
50
10
3
83
49
74
22
5
19
13
16
4
54
40
101
47
8
116
72
11
25
39
44
89
124
112
89
114
26
31
43
63
112
80
70
55
60
62
122
87
78
80
39
1
100
40
6
74
67
7
91
53
29
91
54
39
53
96
121
95
123
15
48
18
89
43
43
23
91
13
30
109
47
8
114
101
54
95
65
104
35
87
79
13
42
48
123
92
67
48
18
102
78
108
74
80
28
10
30
106
113
117
12
112
43
100
106
89
81
81
106
42
91
43
5
81
25
101
90
68
118
114
0
44
42
118
117
27
26
97
115
4
29
90
107
17
104
62
105
109
21
12
0
53
39
73
19
28
6
108
9
51
75
91
83
51
99
123
67
122
60
99
69
62
61
124
85
107
56
96
70
33
10
10
95
86
44
108
15
64
13
119
49
59
111
79
75
15
62
105
28
17
57
113
59
98
90
57
36
6
120
3
87
117
20
73
102
106
77
119
89
16
88
12
112
45
65
68
119
77
61
14
20
82
37
65
54
36
122
26
7
120
82
101
106
58
17
1
74
69
75
112
99
23
49
54
15
29
57
78
47
101
20
26
83
6
18
45
123
104
77
0
7
104
37
69
12
26
43
42
56
102
77
89
114
111
124
56
24
53
28
19
16
123
30
29
58
25
13
109
83
77
28
74
18
116
66
41
65
108
105
2
90
53
98
99
17
67
70
114
107
42
66
26
7
28
26
110
27
58
104
59
2
90
120
97
36
62
107
103
56
10
82
120
123
24
97
74
118
42
102
30
5
57
82
83
87
63
81
26
65
25
29
82
56
121
82
33
99
102
8
7
95
48
39
79
108
113
107
80
36
104
12
23
72
45
81
26
84
84
87
115
37
12
123
9
41
21
43
111
66
73
123
67
3
61
102
88
58
3
76
84
49
58
76
65
30
48
3
33
113
63
110
76
101
39
9
93
41
74
99
68
88
61
56
73
83
8
64
30
21
33
23
44
112
12
71
53
2
10
24
16
44
62
62
36
102
70
96
91
30
56
32
25
108
38
116
39
54
84
37
37
54
2
38
106
59
68
89
23
85
39
80
98
95
34
0
60
40
9
51
84
114
86
20
48
118
84
22
34
46
21
110
72
72
116
66
9
94
96
72
112
109
63
73
51
3
88
47
11
92
119
7
101
97
63
9
13
20
105
13
28
105
78
107
72
24
81
94
102
96
86
75
62
77
6
124
42
124
63
118
41
108
103
102
69
17
7
76
109
8
9
111
62
64
73
100
91
74
57
58
16
111
103
37
50
58
47
37
48
73
60
25
8
102
75
98
49
60
41
74
20
71
79
56
0
44
38
121
6
92
31
0
109
79
58
56
61
47
60
64
102
19
29
82
100
45
32
23
48
33
28
23
57
58
123
35
1
67
116
3
122
17
27
88
97
40
116
73
8
32
70
74
28
109
51
31
121
17
53
84
66
15
52
102
12
21
102
91
83
30
72
22
70
93
102
26
73
107
100
40
75
30
111
14
17
18
73
36
79
108
56
61
53
16
27
12
2
57
121
63
76
102
45
96
100
4
47
90
89
103
37
1
35
46
120
72
0
51
22
43
64
15
8
88
121
65
25
108
6
62
44
2
123
32
55
28
84
57
98
25
8
92
15
43
21
98
115
42
64
28
11
43
107
113
109
87
58
91
83
24
96
6
97
39
26
43
4
117
114
39
97
9
67
35
80
3
120
92
22
91
33
71
9
112
14
106
110
120
22
58
109
77
38
66
92
85
43
77
7
12
108
37
107
43
45
72
79
11
46
63
35
80
65
9
0
6
94
65
69
24
83
33
53
106
15
108
45
6
119
73
90
46
91
76
38
56
81
37
56
104
36
66
40
69
86
18
100
87
9
114
35
116
10
44
90
98
79
110
17
29
44
106
34
19
45
2
59
42
83
82
16
47
21
32
89
112
26
44
100
37
74
119
42
109
21
42
115
17
30
74
114
26
116
102
45
46
87
63
97
28
94
123
93
11
16
24
15
42
36
79
4
76
83
3
36
65
113
37
69
116
97
21
89
14
17
65
18
58
71
97
18
62
15
119
59
6
34
92
98
83
67
15
99
88
10
44
59
17
89
2
68
62
33
79
107
91
5
61
68
33
55
1
40
123
92
111
117
54
94
36
75
91
9
115
121
103
74
115
54
4
83
14
94
100
123
120
62
87
63
77
21
62
101
107
106
106
84
109
61
122
51
57
114
34
53
31
62
117
105
27
73
78
69
20
11
80
86
13
47
89
12
43
41
112
40
91
38
21
69
31
120
73
19
78
102
120
48
91
20
4
52
35
4
35
40
12
75
37
87
74
67
118
63
44
78
93
48
5
102
73
68
113
70
71
74
121
75
48
58
26
42
49
31
60
88
44
70
49
88
7
25
86
43
82
119
65
45
120
105
3
76
6
21
58
27
64
13
95
82
77
2
97
80
77
123
106
7
75
15
49
18
102
112
17
30
1
93
93
66
99
105
6
38
56
78
12
49
110
32
101
46
11
99
40
28
46
64
3
88
40
95
89
1
70
104
52
25
106
94
39
106
109
65
38
47
34
95
69
80
78
29
25
84
29
93
105
61
66
77
32
83
61
3
42
48
5
50
65
80
5
46
44
48
61
56
14
44
119
119
53
11
85
84
73
110
24
40
12
45
52
51
70
55
50
92
94
4
124
68
70
78
72
84
13
3
25
113
51
80
27
84
118
53
122
71
91
78
38
79
74
57
108
15
65
6
24
110
31
51
60
22
50
70
74
2
43
6
32
81
116
6
60
0
30
10
88
76
83
82
113
105
114
16
74
78
46
76
113
7
68
32
9
113
21
118
80
91
87
80
35
51
16
59
110
67
101
96
114
95
99
64
102
123
51
13
80
115
13
113
81
97
29
41
51
57
3
9
7
31
3
38
119
56
90
119
100
21
66
41
50
58
67
36
106
34
68
108
24
118
52
43
104
40
98
38
23
100
97
10
100
48
80
23
27
15
14
14
67
31
97
112
96
29
124
40
42
77
93
21
38
107
43
3
100
88
61
123
113
110
42
112
87
61
70
82
115
90
66
33
50
42
32
46
99
86
21
112
25
92
60
108
109
58
88
24
55
46
109
3
80
34
97
97
50
102
91
62
40
104
82
85
120
46
11
33
120
28
110
85
60
0
53
97
32
3
121
85
12
31
113
19
10
68
78
79
77
98
40
63
38
53
36
56
85
69
35
52
14
78
12
124
98
111
49
86
85
103
81
67
122
37
50
75
78
19
8
4
113
42
99
111
117
82
54
95
82
3
29
107
5
14
11
50
3
124
110
20
37
84
113
87
1
28
79
45
73
99
23
95
27
12
6
77
15
0
90
88
40
47
120
53
122
95
99
30
27
9
57
36
0
95
119
49
42
100
46
103
3
49
85
53
90
121
75
41
107
37
96
85
117
109
39
77
107
6
109
59
103
44
107
60
84
57
22
59
35
52
29
121
82
34
7
9
72
41
82
6
30
89
108
39
57
85
19
65
124
68
121
74
67
9
62
87
51
118
32
88
82
29
29
119
85
5
25
49
106
41
97
16
19
103
59
4
122
62
18
35
9
19
41
62
51
9
72
73
58
28
71
69
11
56
39
124
116
36
100
81
41
119
33
45
102
108
39
5
90
112
53
83
35
51
98
63
2
99
104
53
83
120
1
91
99
55
29
9
19
101
100
102
80
35
49
73
98
69
38
61
96
65
43
23
116
84
2
54
26
108
90
21
94
68
108
113
116
6
99
14
76
34
36
98
48
40
101
89
47
88
11
53
77
104
72
22
43
112
28
41
49
85
78
11
11
18
77
62
23
99
117
33
62
54
26
22
88
11
45
51
102
74
91
123
14
25
108
54
90
50
56
75
14
40
43
74
38
62
43
118
37
20
119
18
96
46
84
108
28
78
8
107
37
86
24
42
12
50
95
109
74
22
29
105
21
99
95
57
37
93
46
58
94
72
67
30
75
26
107
45
67
107
0
29
60
98
65
4
118
22
118
25
109
3
90
88
83
24
109
71
123
49
123
57
32
49
20
7
44
35
46
10
14
101
73
96
85
100
102
98
19
69
19
108
46
73
88
24
74
94
73
78
24
92
69
66
81
14
73
8
55
83
118
21
36
36
110
70
44
52
69
109
1
23
82
26
80
70
93
25
112
42
26
53
37
21
52
69
6
39
10
51
22
98
97
2
108
123
41
35
118
47
95
24
19
20
103
117
56
74
4
79
65
37
72
14
37
4
44
87
99
90
60
3
100
118
103
17
60
62
77
35
49
88
38
66
19
90
6
9
85
66
24
60
75
84
46
30
34
55
36
30
60
73
101
47
25
117
45
82
10
113
95
121
108
100
91
91
40
14
35
103
48
64
14
13
84
81
38
71
48
61
62
82
10
96
4
40
77
71
116
34
75
50
77
121
96
6
59
62
93
85
41
108
105
118
100
36
87
76
93
103
60
123
102
49
68
66
80
30
96
32
14
26
102
16
14
35
58
98
47
18
10
7
115
108
111
110
30
113
8
116
106
118
90
34
17
117
84
11
22
39
32
103
102
59
85
115
87
100
61
0
46
82
76
73
113
58
22
82
40
11
37
6
42
10
69
123
98
53
29
71
84
19
82
16
103
20
61
97
48
54
102
83
119
107
9
36
45
36
29
66
121
13
1
57
50
26
23
18
94
48
27
42
53
116
2
85
47
74
29
122
79
113
99
15
59
98
112
89
82
8
20
30
69
62
87
62
59
123
16
112
106
119
66
17
118
1
73
111
75
105
1
65
25
35
81
2
43
35
11
87
12
110
99
54
75
106
79
101
41
1
64
66
108
42
18
18
85
119
112
28
19
64
104
86
124
73
26
50
39
51
69
37
123
66
29
89
47
73
53
64
98
98
73
102
91
37
75
63
52
84
86
70
80
107
41
79
38
85
55
29
4
3
56
44
53
76
10
34
124
37
60
58
55
110
35
106
100
106
57
114
60
43
4
41
50
55
41
16
23
20
67
86
4
45
70
4
2
99
11
12
76
27
3
68
16
91
30
31
52
77
101
102
89
107
105
68
31
38
109
26
40
60
10
83
64
30
85
27
14
60
69
0
89
98
115
119
23
13
14
30
59
77
55
116
74
11
78
18
86
67
34
99
42
77
91
117
18
103
118
81
84
16
100
39
112
13
51
67
72
80
53
37
56
87
91
113
18
7
115
91
92
4
118
33
36
19
24
54
5
34
57
3
14
56
11
97
4
98
2
104
59
37
57
5
113
116
12
25
29
88
11
59
75
103
9
68
47
107
55
23
105
29
6
63
87
87
57
107
59
33
58
68
122
24
13
41
117
90
67
89
81
65
106
102
116
98
72
42
64
122
34
78
88
15
96
0
81
33
61
7
23
96
3
79
32
103
49
54
107
64
75
121
10
41
41
2
0
98
26
77
10
119
115
28
20
105
27
40
22
52
44
8
63
53
57
21
109
88
120
22
116
94
51
52
92
47
109
34
124
37
39
96
36
1
69
101
81
51
48
48
14
114
46
3
115
111
117
81
92
61
57
8
32
57
13
85
44
1
84
52
84
89
7
24
11
51
48
102
12
88
94
9
81
111
29
36
33
18
52
45
37
63
123
42
37
1
119
56
89
89
76
119
13
102
54
41
11
95
88
34
113
87
106
37
21
31
78
99
41
115
68
64
72
12
99
60
82
23
64
105
37
43
64
36
46
18
108
108
88
47
8
12
96
81
0
88
60
43
48
6
6
113
115
85
92
92
25
49
80
85
95
65
70
2
14
63
75
82
94
54
52
58
103
68
63
21
118
39
50
120
94
13
50
55
19
75
121
32
73
119
88
74
100
0
124
7
19
48
89
88
40
18
78
65
51
8
39
118
37
41
100
114
22
83
72
57
15
56
51
109
29
38
59
45
60
81
31
28
42
80
66
6
39
82
83
105
51
2
40
63
33
88
7
41
13
69
66
96
16
85
116
61
4
20
119
93
44
60
97
23
117
43
24
123
30
19
32
82
17
14
55
65
95
7
55
91
122
29
86
95
79
57
118
71
101
86
95
55
70
48
68
35
72
109
83
14
59
93
48
93
43
115
33
21
63
26
20
38
96
50
18
79
101
79
70
49
117
64
32
35
47
87
52
56
92
7
60
106
10
12
76
56
1
66
80
44
56
46
87
8
70
23
43
109
111
108
52
69
19
22
43
21
9
16
115
63
94
71
38
21
30
2
85
86
107
31
123
64
84
81
116
101
6
124
84
105
11
64
59
35
119
49
102
14
73
15
5
57
91
57
109
58
45
75
87
71
88
14
123
15
98
7
105
6
64
119
88
55
96
24
51
38
95
48
124
82
114
93
98
61
7
120
113
56
29
35
116
62
11
52
122
92
62
44
88
103
4
14
32
86
14
100
99
72
41
117
68
69
100
72
99
88
22
5
14
72
14
70
27
9
79
99
1
39
29
93
42
22
90
57
22
80
87
41
85
8
81
76
39
104
106
98
72
8
100
49
9
122
111
105
73
58
35
93
36
118
108
98
12
115
65
59
71
103
13
88
14
90
117
3
116
81
63
122
4
67
64
5
13
68
73
38
42
84
64
106
66
41
5
18
104
23
66
51
7
47
46
2
124
76
97
14
70
79
54
73
11
3
111
56
17
116
111
20
123
9
115
39
93
88
58
112
77
110
84
79
0
111
16
18
124
85
109
46
5
100
121
88
1
10
35
105
45
88
18
48
121
48
7
113
33
47
3
109
40
98
7
69
0
28
75
20
97
56
48
85
88
83
87
62
52
53
15
83
9
121
1
36
11
45
43
90
64
124
98
18
97
52
95
36
37
43
6
50
58
7
98
72
32
23
100
59
91
1
121
33
124
66
26
1
66
101
65
109
15
88
40
122
12
4
105
31
56
123
8
68
56
44
112
73
73
80
82
37
14
100
69
60
122
90
12
14
37
45
38
77
14
72
49
47
74
119
71
98
117
39
43
45
36
63
24
31
78
19
43
89
54
86
101
28
82
115
109
50
106
38
101
53
47
104
32
86
73
115
42
34
36
4
41
5
98
120
94
92
53
113
36
117
28
102
106
110
116
111
11
81
104
93
91
67
45
57
40
41
63
2
47
107
92
84
32
97
124
86
71
49
18
27
49
111
16
22
32
99
53
45
83
21
118
91
5
67
20
118
23
29
35
99
115
41
65
19
24
92
49
90
34
27
74
72
61
87
80
85
35
72
106
28
78
98
85
41
10
83
104
119
58
14
55
63
115
102
2
2
118
1
76
123
28
116
8
108
19
29
83
6
30
6
41
109
105
1
39
100
45
57
58
22
124
40
8
49
100
99
4
66
119
16
27
64
34
8
35
91
62
82
49
26
80
64
78
95
65
101
53
119
48
71
23
48
40
48
38
20
26
56
59
119
10
77
119
10
27
25
105
0
0
8
38
40
72
95
86
92
10
74
112
5
56
22
5
47
72
65
99
78
119
13
3
41
65
68
66
97
62
69
33
95
48
121
113
105
54
66
94
29
86
58
74
22
63
29
97
68
62
77
63
107
38
21
113
18
81
10
92
19
30
38
73
110
104
21
73
13
74
58
106
67
116
54
72
110
101
97
33
3
68
64
100
2
103
70
52
10
54
118
84
42
91
13
85
34
83
43
117
10
105
40
124
63
55
116
81
32
107
26
79
99
52
94
0
24
9
65
82
114
10
102
61
97
96
66
106
70
53
6
21
114
37
14
9
36
80
96
64
114
92
124
58
98
105
10
109
83
16
90
91
89
86
123
27
58
29
103
76
117
90
19
39
42
4
94
114
42
29
92
72
13
50
73
32
16
87
76
82
51
24
3
101
17
2
66
85
33
58
68
10
115
47
119
64
18
103
89
37
104
10
19
62
116
21
108
56
95
85
1
43
20
92
45
44
84
87
47
110
7
85
53
0
116
7
35
101
92
73
94
8
10
66
39
105
67
26
23
76
106
28
67
10
106
27
20
101
57
70
51
17
118
120
0
122
103
83
17
111
17
77
105
60
64
26
1
88
119
42
16
123
40
23
20
15
3
28
83
69
2
6
74
96
68
123
59
85
124
45
81
96
25
123
33
45
103
51
122
2
58
81
16
61
88
45
44
44
73
44
10
120
13
68
58
87
73
12
90
119
121
52
102
59
92
12
54
105
115
81
89
117
13
114
40
57
120
8
85
42
113
28
62
19
62
69
25
57
15
98
32
104
65
83
28
69
61
9
111
60
59
73
79
91
5
93
102
65
5
96
75
86
88
63
69
102
1
1
87
69
122
10
117
63
52
105
93
124
63
69
123
8
54
11
33
35
81
15
63
113
109
95
89
71
81
10
106
72
3
105
16
71
64
101
121
11
92
6
78
17
16
59
87
50
10
25
14
55
93
19
85
22
56
79
37
22
123
55
90
46
47
85
115
41
97
60
7
109
114
1
85
67
101
113
104
51
0
5
71
109
108
9
76
77
84
77
104
18
3
42
121
40
106
32
34
114
17
57
82
118
108
109
7
52
52
15
105
22
77
107
27
4
10
38
78
12
63
62
105
5
37
63
53
102
92
56
104
24
45
82
35
102
123
15
43
55
70
120
50
3
18
21
103
81
3
83
66
97
85
82
88
59
49
86
56
116
118
22
120
92
8
57
20
34
109
76
117
47
62
83
93
70
121
30
109
1
113
31
66
20
90
38
64
66
18
119
19
4
76
50
42
123
75
118
103
31
0
29
43
73
109
71
66
8
85
13
36
56
17
120
59
97
115
22
88
32
110
37
59
18
99
16
107
118
102
62
33
93
123
0
106
47
41
64
123
113
99
113
89
34
12
96
9
23
0
105
72
79
83
120
93
112
46
97
17
88
114
8
104
104
22
0
119
115
114
65
71
3
11
19
113
116
14
48
112
94
0
117
59
94
110
94
22
112
23
24
23
18
48
70
66
113
64
57
90
90
28
119
6
52
42
67
2
84
51
94
110
23
122
36
99
124
118
24
101
97
55
73
31
25
15
29
45
55
19
52
102
33
82
102
41
85
87
47
9
20
88
58
75
63
62
62
87
17
89
18
80
122
80
72
38
95
76
107
64
7
70
116
86
78
121
72
121
37
102
116
46
102
10
72
68
67
17
16
90
87
51
97
21
99
95
55
38
15
96
92
68
30
52
2
78
10
38
26
104
22
36
19
59
8
53
82
61
5
123
75
93
65
119
116
15
55
41
31
39
79
33
66
73
10
75
58
44
81
17
19
11
60
105
50
73
83
106
92
121
68
41
121
29
91
116
64
105
2
76
47
18
21
9
89
74
87
42
69
68
114
5
121
6
52
17
2
26
110
118
22
61
91
13
29
3
123
79
36
121
46
118
112
97
115
93
61
15
45
51
71
104
120
11
8
121
108
85
10
32
57
34
85
40
7
80
116
85
64
9
107
31
9
34
17
22
110
7
119
84
27
110
36
62
55
108
81
64
39
97
69
85
15
2
7
81
5
19
10
40
52
98
30
109
117
81
66
29
118
78
13
122
72
7
36
70
98
5
1
94
85
56
101
31
72
80
95
81
84
72
107
107
18
103
110
75
61
107
0
15
78
100
91
104
33
13
65
37
59
86
71
55
92
121
21
64
89
26
63
13
61
65
98
26
47
18
50
76
113
86
60
111
76
13
41
111
25
74
51
34
113
59
45
120
31
61
53
92
6
83
50
110
31
91
54
7
67
90
34
24
117
50
48
6
8
111
89
29
63
46
24
123
20
78
97
41
15
124
66
21
110
64
98
0
87
71
15
36
39
9
40
37
100
44
118
25
36
64
92
55
97
38
118
35
71
100
0
39
64
57
73
84
19
68
58
18
75
59
118
62
59
30
117
30
61
105
117
115
57
78
111
111
41
56
7
48
23
113
81
37
78
46
74
121
117
24
22
48
58
46
68
62
59
79
69
89
30
99
8
110
39
15
97
16
21
121
63
4
8
89
24
99
114
35
44
71
57
67
116
18
94
123
68
6
118
17
69
32
10
105
120
88
71
28
107
55
84
27
119
26
7
36
121
36
29
56
96
11
100
78
109
120
96
106
20
98
76
43
88
13
16
77
27
71
47
91
93
53
46
85
99
44
108
24
24
51
14
101
3
29
114
100
54
2
35
71
78
121
73
59
120
103
29
12
4
78
32
5
6
117
107
78
76
101
63
32
6
43
19
18
82
87
35
53
67
79
2
12
49
77
76
11
9
23
113
11
60
106
49
24
71
106
16
47
5
10
2
42
51
1
119
5
22
15
85
61
37
0
49
95
10
70
6
110
73
80
52
77
59
13
122
83
71
123
51
113
52
83
79
25
75
14
49
21
124
51
109
45
122
46
41
36
101
62
94
0
102
22
58
86
51
51
100
54
89
97
21
97
24
9
69
122
112
16
51
111
1
57
16
114
42
113
38
41
120
36
75
122
93
47
101
3
98
63
122
103
43
111
77
76
117
74
26
69
113
57
65
87
93
8
108
42
15
25
104
84
106
67
96
20
16
36
37
45
72
111
72
24
70
117
34
50
43
114
74
45
53
23
112
34
55
107
96
20
87
29
20
30
37
122
18
71
67
92
121
66
7
47
13
16
112
114
106
41
62
30
58
110
59
72
86
54
108
43
31
67
9
17
116
53
87
17
123
101
55
73
32
23
79
71
111
25
114
74
50
27
15
52
45
19
118
36
6
60
81
116
10
102
100
95
33
38
30
73
41
36
43
124
24
57
108
39
121
76
63
71
49
5
66
24
67
71
75
46
60
114
60
36
109
19
86
29
8
80
44
17
63
59
22
68
38
20
32
36
52
31
52
39
10
14
85
109
111
61
0
61
83
24
21
72
85
92
65
118
116
101
77
48
83
65
26
72
61
80
109
106
29
50
88
0
86
117
31
69
28
32
102
107
67
90
110
79
27
100
113
120
53
26
115
39
23
62
78
114
82
101
120
93
112
67
23
112
62
46
36
114
10
101
54
64
49
14
79
58
83
4
124
109
62
87
110
57
30
75
40
22
104
116
83
86
116
13
5
20
92
98
122
30
60
26
83
88
93
26
73
102
72
115
26
23
122
102
103
43
9
120
41
69
43
115
59
5
62
114
11
37
42
8
55
69
3
60
81
58
117
47
54
44
85
57
39
34
90
17
70
7
12
85
109
117
20
35
77
31
96
110
66
26
111
4
42
18
46
67
66
16
16
114
11
97
1
115
25
71
80
71
79
36
32
92
76
2
15
3
118
124
75
83
48
107
19
48
41
95
17
103
107
27
52
2
16
35
49
31
50
50
85
15
10
97
36
58
19
83
116
124
41
83
122
98
37
47
10
35
59
110
88
113
30
49
97
7
75
124
32
119
87
2
100
33
118
22
113
84
55
42
14
31
89
111
59
72
21
20
100
27
11
65
1
104
61
97
119
83
34
36
20
6
36
96
2
28
3
5
7
23
55
117
70
76
58
61
119
62
56
111
28
55
74
76
92
55
114
35
76
99
30
44
84
101
61
90
60
21
28
81
20
82
87
75
3
86
88
11
117
4
75
114
76
12
25
97
111
108
46
119
4
115
94
44
97
26
45
73
25
73
111
108
69
84
83
17
25
5
47
65
102
83
121
77
107
17
92
120
6
121
87
83
30
39
99
19
42
66
48
20
33
111
51
39
89
115
50
30
8
82
36
118
2
111
23
113
116
41
71
21
68
80
31
22
115
3
92
102
106
38
82
24
96
37
101
26
73
12
94
74
95
90
96
97
28
71
120
109
113
96
38
47
82
115
106
13
66
7
82
106
77
84
7
95
78
121
102
89
14
52
84
2
38
44
89
14
28
97
98
22
85
76
1
18
89
118
68
30
46
24
73
73
74
74
38
1
2
101
110
40
30
41
74
23
11
73
88
32
23
41
28
100
122
106
105
0
56
58
108
100
20
58
7
83
38
94
81
56
112
120
96
83
89
108
59
3
123
71
11
78
67
35
115
101
119
111
87
45
0
17
74
54
83
93
87
76
51
94
59
51
68
82
89
53
24
30
60
0
49
116
115
27
60
39
115
21
31
56
19
82
12
95
23
112
104
112
69
9
60
115
14
27
16
50
96
1
31
54
74
118
51
34
49
68
91
18
89
71
40
57
102
83
71
44
86
2
67
0
17
21
33
113
92
65
59
7
117
73
56
76
57
92
52
10
72
23
29
101
5
102
50
123
37
117
51
21
66
98
97
36
107
3
92
23
100
21
70
10
109
100
94
73
55
39
105
113
80
89
5
104
61
123
108
69
11
109
64
72
114
47
50
52
83
77
110
55
107
49
74
41
12
14
120
61
62
27
31
98
95
23
46
124
19
99
97
79
61
102
8
10
44
117
85
84
44
13
108
3
45
11
51
60
100
78
116
30
20
1
95
62
67
121
18
84
110
22
109
25
104
49
79
83
111
64
58
34
111
15
11
53
65
53
102
24
36
17
53
95
112
39
41
7
14
87
122
122
8
50
123
44
118
33
5
114
1
12
121
91
115
55
121
18
73
30
39
121
63
100
27
75
53
26
17
20
63
87
111
7
68
20
57
45
96
14
58
66
90
71
123
56
21
34
81
12
123
3
59
86
43
109
83
120
87
42
10
91
78
4
65
35
40
25
92
29
113
67
59
25
105
114
78
48
105
66
104
48
30
116
54
58
114
111
83
118
33
95
122
22
17
34
66
28
99
3
33
63
89
88
44
59
100
42
116
61
69
89
31
124
121
96
72
73
60
21
27
62
22
15
50
117
21
84
109
45
68
50
108
70
15
113
1
12
7
3
27
70
45
24
5
65
19
77
24
53
8
91
98
35
35
0
68
10
111
101
70
8
7
6
88
37
0
93
107
43
10
20
58
16
81
29
68
113
61
44
74
10
72
43
67
71
23
120
52
80
5
91
35
11
108
1
11
0
111
1
62
58
12
56
86
19
44
6
11
97
54
34
2
41
53
8
108
88
24
119
53
16
95
40
98
19
16
9
101
124
4
29
68
123
42
61
61
0
77
19
23
78
72
26
0
66
62
29
74
54
117
6
95
86
113
119
79
46
34
99
84
46
12
23
20
70
41
25
31
24
74
78
121
70
101
103
33
5
40
83
3
35
62
83
121
13
27
96
124
90
69
34
22
105
14
64
69
114
79
93
74
3
70
50
18
27
118
7
65
106
1
113
57
78
22
57
101
51
15
14
25
27
86
58
105
116
15
99
79
92
10
117
90
105
11
53
50
106
112
34
71
95
29
22
34
46
106
80
115
102
81
57
51
9
73
11
59
19
5
22
66
66
19
32
52
75
103
71
109
96
47
61
54
112
47
67
114
52
77
100
15
12
110
70
86
56
110
105
46
86
82
97
96
58
114
32
55
83
47
6
86
88
91
18
23
7
57
8
85
64
55
52
63
27
108
61
118
5
42
69
58
89
87
105
104
115
39
50
88
11
62
98
53
28
93
66
111
27
100
5
53
15
82
95
100
27
124
100
101
4
39
1
24
56
12
17
109
11
67
44
55
67
75
11
41
11
24
109
65
113
50
56
66
51
103
47
31
62
121
114
99
16
61
90
122
65
90
40
61
19
97
12
101
92
90
106
1
42
120
107
43
57
30
51
117
42
30
19
109
32
17
82
14
6
93
9
104
6
43
118
89
33
35
109
58
13
111
23
12
112
41
41
6
124
56
80
6
12
121
60
57
64
71
112
55
112
32
88
102
67
49
62
119
11
67
55
10
73
59
23
77
18
87
93
36
95
52
118
89
97
45
67
45
80
116
78
3
20
70
80
103
15
39
48
95
119
115
49
53
27
36
24
100
78
34
91
116
25
10
59
40
105
113
118
5
71
105
67
65
116
47
69
18
4
23
24
33
100
44
102
82
102
45
86
100
61
35
77
44
37
90
13
54
51
92
93
74
27
92
85
94
120
34
95
36
38
84
74
40
38
97
110
53
4
6
77
19
6
80
74
51
96
37
31
115
8
112
89
69
55
85
33
87
102
74
14
61
25
25
57
11
3
82
70
80
102
85
108
76
52
33
60
111
82
19
82
15
73
8
25
110
84
15
57
23
33
29
19
74
80
32
9
15
92
10
17
47
80
51
116
21
1
17
100
113
52
89
94
47
7
22
120
42
118
120
121
38
114
30
50
28
26
115
0
76
77
41
15
28
71
51
100
74
12
84
109
77
87
123
66
22
104
122
80
108
78
110
67
111
115
9
53
89
58
115
41
18
66
84
10
96
101
19
85
113
35
73
75
5
88
32
95
42
30
11
27
51
42
72
55
66
119
47
46
52
108
115
25
11
21
8
73
47
63
23
118
58
78
86
79
96
24
121
123
118
111
107
65
76
0
12
91
34
51
86
99
62
30
33
69
23
20
56
2
79
117
51
118
65
56
91
11
55
66
57
53
65
93
94
123
8
83
110
23
104
92
92
35
67
35
115
105
43
2
15
86
60
7
54
20
115
26
82
10
61
119
57
84
121
33
22
37
77
23
23
69
52
58
53
25
55
41
43
69
100
88
97
61
76
5
44
36
111
48
15
47
51
80
78
54
33
85
70
63
5
106
49
35
60
27
86
23
75
11
18
85
99
16
114
110
54
45
29
18
20
54
15
26
99
14
62
45
34
57
40
123
31
37
39
9
109
124
116
108
116
114
37
113
68
26
12
47
110
66
109
28
32
121
112
78
45
52
85
41
106
34
63
71
98
47
58
89
52
47
20
98
30
23
47
69
32
63
63
89
115
0
33
122
53
120
28
108
81
69
92
33
33
9
43
38
42
98
82
78
114
17
79
81
77
105
76
112
98
119
113
85
46
70
72
33
52
36
19
116
32
94
93
16
86
42
11
8
92
73
97
17
91
31
1
83
41
105
92
18
102
55
83
105
34
81
96
77
46
106
64
35
2
105
7
90
109
98
124
77
72
98
2
49
106
1
87
115
5
121
99
122
117
114
27
112
18
72
96
16
109
46
82
105
51
106
28
81
98
53
42
59
95
119
57
91
96
64
18
63
53
40
9
5
31
93
13
86
93
66
89
58
100
124
37
38
25
59
96
111
71
119
104
78
61
30
66
74
92
37
85
61
89
103
124
6
56
9
18
46
56
94
2
91
108
43
30
15
27
5
7
103
0
16
102
111
114
77
119
69
82
27
87
31
42
97
93
3
59
99
46
47
81
44
14
21
120
10
71
44
84
47
10
87
14
35
12
74
55
30
50
109
111
60
1
12
101
51
4
78
10
111
41
84
94
34
82
90
78
94
97
33
29
5
12
44
55
98
116
99
111
5
33
58
43
20
69
105
35
36
46
62
88
89
33
77
39
26
49
107
57
63
11
72
55
49
6
41
31
89
52
100
40
92
79
2
50
5
96
14
109
122
48
113
10
75
9
89
43
43
5
72
102
43
30
47
27
74
60
71
74
25
1
112
81
11
27
6
33
65
39
17
93
87
70
39
59
88
72
63
36
63
69
124
49
21
29
62
3
65
39
95
93
2
56
96
1
116
7
118
1
62
59
5
23
5
27
25
45
38
62
52
73
76
85
115
39
49
97
98
21
52
22
114
61
13
99
101
3
98
11
117
68
66
100
40
106
86
50
109
32
76
104
10
91
62
13
82
109
38
81
109
109
5
7
50
46
96
77
11
36
5
62
63
78
56
108
106
100
75
10
95
27
7
122
44
63
46
72
72
67
54
100
82
91
123
2
14
18
97
46
75
12
44
20
10
70
23
63
29
41
5
38
122
51
20
31
59
61
100
49
64
25
36
47
99
43
74
102
34
61
12
47
64
69
19
95
106
58
22
120
120
20
93
70
2
110
12
62
77
111
67
0
11
90
87
42
60
84
123
101
14
111
54
109
4
12
62
22
43
112
58
25
85
99
107
79
92
77
104
96
16
28
5
24
91
111
122
110
69
30
97
2
32
7
97
33
15
62
7
7
66
87
7
20
122
36
51
38
1
95
79
22
90
48
110
63
51
20
66
26
104
12
14
25
122
115
29
15
53
123
67
80
98
58
5
74
6
103
33
35
56
43
12
15
76
35
112
81
74
80
48
17
94
41
124
78
35
33
97
55
76
54
11
37
42
54
27
93
115
97
7
62
75
5
107
115
18
10
102
29
100
74
80
103
121
18
87
21
96
49
65
75
52
124
60
92
100
37
118
26
82
77
4
0
65
66
76
76
34
34
39
44
69
77
73
66
42
91
65
74
44
24
49
116
63
97
51
117
15
43
87
101
65
36
79
83
23
116
78
0
100
97
97
61
16
11
99
1
26
61
100
9
83
109
100
47
32
118
62
23
71
84
5
98
101
11
104
55
79
105
83
88
69
36
31
32
82
33
82
108
8
66
51
10
34
23
67
113
104
22
101
12
72
27
1
58
101
111
46
105
122
33
0
112
13
20
29
68
17
32
105
86
48
120
24
48
44
90
96
1
98
61
83
16
40
69
64
50
86
56
40
32
76
16
82
77
50
111
104
26
6
27
88
12
80
45
116
104
103
63
89
31
117
92
41
25
80
82
120
80
42
111
103
10
27
87
38
55
69
62
120
74
25
105
117
26
43
120
66
107
9
52
88
74
55
43
103
106
112
51
61
99
75
96
120
57
13
41
12
18
0
121
51
109
93
108
1
21
71
44
14
117
122
52
66
67
14
104
24
76
41
124
10
115
112
78
31
32
9
99
0
116
41
18
60
32
44
29
49
8
104
73
116
121
0
67
92
112
110
68
4
87
23
65
22
95
76
42
60
9
27
115
102
99
107
37
41
2
91
81
62
38
95
25
96
29
80
65
29
42
9
16
119
108
10
0
38
35
34
72
28
119
91
120
100
108
79
117
103
106
5
102
53
56
49
46
33
106
18
57
49
38
64
41
67
4
67
23
62
6
47
30
94
83
18
96
38
50
5
16
103
56
92
38
113
108
121
85
26
81
51
95
71
23
115
80
50
15
106
91
31
90
111
0
102
57
28
94
111
120
5
55
58
83
95
61
76
114
117
44
33
81
116
65
3
29
122
85
105
13
56
2
50
96
107
91
78
107
77
5
25
24
86
16
41
118
78
71
96
103
8
81
109
85
77
84
105
46
88
102
89
48
24
44
54
103
10
45
60
19
59
54
65
121
36
15
62
123
1
47
66
70
3
17
15
96
91
71
78
59
99
20
90
78
85
22
60
36
63
12
101
50
7
53
85
105
66
78
100
93
34
58
79
108
60
58
87
69
81
82
70
105
45
75
9
50
51
42
38
32
63
88
41
124
60
73
5
64
81
8
7
1
115
75
41
7
78
63
14
26
114
43
88
22
10
98
108
12
20
53
89
96
20
28
34
109
99
57
18
18
104
34
30
56
65
66
108
102
2
93
37
19
56
16
37
44
122
15
112
25
53
73
106
50
42
14
7
113
24
119
36
56
35
60
26
7
6
69
40
91
4
34
56
12
10
63
42
45
14
20
51
9
47
8
4
124
35
39
45
58
25
65
100
12
109
91
4
1
19
0
53
118
91
122
112
16
40
26
69
4
79
8
8
106
5
4
31
15
7
89
83
113
44
40
112
42
67
35
93
42
98
93
19
63
52
64
39
20
88
37
20
70
105
38
96
38
119
27
16
53
25
7
52
66
116
98
45
113
13
100
49
92
31
122
110
4
121
81
34
82
9
63
60
104
61
111
24
0
76
25
7
106
82
30
96
64
86
76
91
119
83
68
71
9
59
49
66
21
88
50
6
11
34
106
110
21
73
122
102
99
72
9
32
98
24
31
81
108
57
77
0
59
97
24
123
117
8
123
47
51
90
68
107
114
79
98
30
101
14
77
81
27
63
59
81
54
4
115
78
58
98
99
24
102
0
4
7
35
115
104
122
99
40
57
3
0
51
88
108
95
117
118
57
108
86
4
37
57
59
81
95
108
35
84
116
31
48
38
70
37
82
52
92
11
59
104
50
60
22
12
39
3
31
3
31
112
23
3
106
109
2
78
43
81
113
108
40
66
90
102
75
73
111
103
100
69
20
97
10
47
60
94
32
18
52
111
83
90
104
22
81
115
95
112
81
91
88
102
24
39
3
49
12
90
124
106
114
124
5
87
44
76
19
80
21
3
121
55
100
108
14
60
72
26
120
16
116
11
123
63
35
0
74
12
2
13
21
43
120
90
79
81
115
67
69
37
109
32
26
97
27
61
44
94
115
21
96
86
29
87
4
59
52
30
85
70
115
22
31
37
86
81
10
88
24
73
80
107
116
15
93
47
110
34
38
14
97
57
42
12
102
42
92
1
49
78
69
119
11
114
90
51
24
117
35
31
90
109
36
20
36
40
98
98
70
8
117
106
21
111
27
13
112
1
36
102
67
107
74
20
56
80
85
41
55
53
70
52
80
79
81
42
75
8
109
15
14
19
44
58
19
3
42
90
42
85
81
6
35
23
91
110
91
83
39
91
36
124
104
102
81
121
22
111
103
16
63
39
88
93
40
46
23
18
98
30
97
70
40
22
64
38
105
38
8
45
77
54
119
8
59
123
79
83
5
64
98
43
92
112
23
18
99
111
119
63
60
80
56
112
94
95
122
90
80
23
44
69
61
35
20
83
71
118
124
82
106
61
70
59
113
25
40
92
101
122
0
16
122
64
100
99
103
112
9
109
31
34
81
37
70
37
23
37
29
35
114
24
26
118
110
62
3
63
92
86
76
33
97
35
74
94
35
81
104
3
64
15
100
119
6
113
120
29
90
73
6
45
36
37
11
70
64
21
58
87
108
3
100
33
14
18
103
9
39
64
90
108
87
101
117
112
86
6
71
13
115
93
4
97
72
58
1
81
123
69
23
89
66
109
91
110
75
111
11
122
67
90
79
11
111
114
3
118
120
77
3
66
123
115
0
52
6
82
33
76
18
35
81
88
99
14
40
93
46
70
34
61
25
103
92
65
60
118
116
90
6
71
41
19
115
96
36
75
84
48
61
86
92
40
81
109
70
34
29
15
79
33
58
37
90
92
9
93
117
85
51
118
53
116
46
83
67
103
63
12
60
104
86
56
31
98
20
13
45
79
37
44
35
7
61
73
10
98
95
44
62
92
99
26
53
92
83
103
16
76
110
113
25
36
61
52
75
59
60
59
37
78
107
37
62
116
69
49
115
63
101
75
27
119
69
59
17
25
25
59
75
0
111
88
107
8
21
112
81
21
111
15
101
68
45
102
106
120
106
49
124
75
8
45
97
11
9
7
83
116
110
17
114
42
86
84
85
48
90
9
35
114
2
94
29
74
13
18
59
94
92
122
5
103
27
10
55
3
26
98
24
100
17
20
72
43
106
73
100
50
38
23
123
14
44
25
63
39
12
77
9
99
107
8
52
73
37
93
70
93
6
56
15
72
7
101
53
34
59
78
116
72
14
109
57
11
14
98
81
117
7
18
91
47
69
18
75
49
44
50
86
25
51
101
92
1
65
83
58
76
45
14
27
112
72
100
90
36
31
40
107
83
119
46
98
67
97
64
99
60
23
117
121
120
46
93
49
96
13
42
22
40
32
69
51
35
84
47
72
34
43
21
124
123
6
59
20
54
53
2
33
118
6
110
16
101
6
16
104
100
8
88
92
94
32
76
60
22
71
40
16
98
62
16
99
9
110
67
44
44
55
87
114
38
26
38
40
95
43
116
117
84
100
9
38
40
42
18
59
111
100
86
93
110
66
34
66
78
71
124
92
9
73
36
4
36
54
83
86
121
73
83
95
49
27
12
12
54
18
56
10
38
82
88
48
22
89
89
1
38
58
103
70
19
47
52
51
108
123
47
16
105
100
71
111
102
102
43
88
13
56
14
85
75
54
104
47
108
107
76
97
29
118
37
7
59
19
74
124
116
71
74
66
77
65
23
56
88
101
86
15
96
86
8
102
22
48
86
60
92
43
88
90
62
105
89
35
54
124
64
24
40
42
0
54
61
85
66
17
124
123
8
62
97
66
110
29
47
64
52
35
43
77
38
95
6
16
65
78
14
53
89
121
47
1
80
68
68
106
88
19
118
68
94
53
78
49
77
89
87
7
35
59
35
42
64
13
44
35
79
35
80
56
22
63
24
27
34
108
59
62
81
56
124
121
107
91
46
61
80
66
107
36
61
63
19
75
57
108
5
87
12
47
105
27
68
44
94
14
109
83
123
40
14
90
71
115
3
54
15
55
74
65
8
84
11
121
53
30
27
109
52
18
36
54
33
116
117
78
47
99
70
106
9
29
104
0
112
53
19
37
67
3
58
61
17
114
86
99
26
94
85
7
13
47
105
112
109
118
32
48
3
54
88
91
100
61
95
90
113
44
42
18
107
94
33
35
65
34
21
97
92
78
16
7
1
6
82
57
124
14
99
107
71
38
32
117
62
120
37
55
0
39
83
3
18
0
1
57
105
27
89
4
66
22
101
67
48
30
56
122
70
118
114
70
23
18
118
94
71
54
73
97
79
22
78
48
12
49
15
81
47
65
104
60
107
90
64
97
97
93
16
31
42
42
82
22
119
20
114
15
0
52
28
110
75
0
103
46
39
87
69
11
108
68
4
72
72
81
78
120
55
64
6
36
78
9
57
104
38
64
45
107
8
45
27
48
98
6
48
13
120
47
115
104
8
30
12
92
115
17
53
14
93
27
102
43
29
42
98
25
20
77
57
45
72
79
92
98
18
16
111
91
38
105
71
70
113
16
40
101
68
69
11
44
67
31
101
28
38
75
21
119
100
116
115
34
101
10
37
54
95
119
115
70
45
67
63
32
111
24
123
121
72
8
68
101
67
59
30
32
118
108
89
85
51
36
66
72
116
19
82
32
92
8
12
113
64
111
58
114
105
20
33
88
51
4
118
5
33
52
76
109
47
66
4
73
10
33
0
45
99
114
6
2
0
99
115
5
66
88
11
124
102
3
57
61
70
94
3
88
107
49
14
1
33
92
105
89
57
21
9
64
68
5
79
99
13
0
0
57
110
55
7
112
94
115
65
102
46
118
58
22
95
17
22
85
49
102
2
105
75
78
10
69
63
39
15
2
2
46
20
29
78
124
74
54
59
81
123
2
87
38
24
117
116
88
27
121
81
35
15
30
110
74
85
37
3
64
83
100
33
56
61
67
79
109
40
14
119
56
117
101
110
16
115
21
99
78
8
32
51
23
23
110
94
112
3
117
19
89
100
45
98
25
85
97
105
72
2
25
61
15
85
74
115
40
87
14
106
110
119
49
89
105
120
11
78
102
98
78
10
91
78
35
104
12
25
84
106
75
44
75
57
67
18
74
94
56
25
113
45
73
100
24
80
113
105
68
26
45
79
115
83
85
113
91
124
64
1
94
48
90
121
69
109
115
55
3
36
8
60
93
27
80
105
23
80
43
77
4
58
56
29
105
2
77
96
100
68
34
97
71
30
73
119
77
118
64
67
21
52
10
35
99
20
89
44
63
1
8
99
97
43
5
19
83
36
8
9
53
94
123
109
17
83
104
43
28
34
26
112
121
39
102
117
44
108
37
88
90
64
103
42
95
67
120
28
11
51
38
70
47
59
114
78
10
69
121
38
99
104
7
85
40
33
74
69
5
57
45
22
58
124
105
63
92
65
54
73
86
57
67
115
48
107
58
90
32
96
63
95
3
24
10
94
75
108
11
27
68
119
112
56
68
103
100
67
18
50
16
112
83
110
87
116
94
114
37
45
9
33
28
5
69
91
32
84
72
22
26
1
54
78
53
54
122
116
83
23
21
82
43
30
24
109
57
75
68
52
26
32
68
81
7
31
17
47
71
42
65
88
30
31
49
102
110
124
104
62
83
44
103
3
0
113
63
86
13
82
79
0
4
81
40
57
91
65
86
44
118
76
78
8
84
48
30
60
72
107
29
73
82
40
4
75
99
30
38
86
34
84
0
17
6
25
2
123
60
67
29
23
77
90
124
31
56
99
22
19
108
77
12
41
41
1
113
70
108
72
27
110
35
67
55
117
91
119
85
10
69
72
88
89
44
39
2
60
120
73
30
91
76
48
95
94
44
98
100
113
96
75
107
69
83
29
94
74
47
15
53
15
68
39
57
68
2
114
82
37
55
36
56
20
14
67
100
58
109
48
27
76
51
63
35
102
53
8
75
15
54
72
32
104
51
11
9
28
113
92
47
96
61
86
19
63
51
24
52
76
61
93
9
38
69
51
117
71
119
57
17
91
0
68
117
2
122
106
12
0
17
21
80
119
102
42
42
97
14
111
37
4
114
95
90
69
51
32
68
121
46
122
43
41
85
94
48
31
15
102
109
70
54
74
60
107
80
20
55
40
113
110
74
100
40
18
90
40
102
13
62
44
100
24
62
83
86
12
103
94
85
94
72
19
72
38
109
73
11
14
31
61
25
1
79
96
49
49
34
76
24
3
26
56
56
110
105
116
44
17
120
91
104
44
18
38
21
90
69
107
30
81
54
36
11
38
111
36
63
61
47
29
49
46
45
23
5
86
106
72
17
22
88
52
47
76
87
82
103
91
99
61
71
28
69
34
4
35
39
10
122
62
13
3
32
66
59
5
31
40
123
86
86
7
30
108
93
47
44
124
20
7
35
81
50
21
91
35
65
119
37
122
40
87
17
48
104
72
49
112
122
48
98
45
7
46
94
110
58
96
80
91
31
11
34
117
16
22
9
99
120
76
83
112
96
71
107
109
37
5
99
76
106
89
103
32
19
7
107
3
107
34
73
59
11
11
62
103
41
113
106
109
101
65
55
79
119
56
7
123
82
67
105
51
27
48
87
99
9
62
119
64
97
52
38
75
87
86
38
50
48
1
120
2
124
80
105
69
80
1
119
78
43
60
113
9
60
65
18
6
11
87
96
96
5
69
98
101
87
26
58
96
75
105
80
42
75
81
101
20
3
52
63
52
52
45
0
124
44
23
7
24
4
33
27
59
37
27
121
5
121
74
69
71
63
119
81
53
98
9
116
44
5
70
79
4
97
84
57
117
10
105
66
74
19
37
41
46
119
107
31
81
114
87
5
61
100
11
70
32
20
44
120
71
93
46
73
99
53
31
71
79
54
6
59
88
7
104
38
104
8
61
38
23
109
97
6
8
22
112
82
65
11
32
28
7
87
106
81
108
108
107
79
6
40
119
119
109
21
48
59
122
92
29
85
40
45
43
90
25
16
26
17
7
46
96
40
40
36
82
21
124
44
92
75
89
76
106
100
29
34
91
28
69
73
119
2
8
112
13
6
39
99
121
92
90
6
64
12
99
106
1
89
66
71
86
58
50
54
46
75
71
116
79
29
85
2
84
18
50
66
84
109
40
11
109
18
114
28
38
115
2
4
31
124
110
66
94
41
61
3
61
95
118
12
77
42
89
123
58
28
52
104
103
51
21
109
40
78
7
56
60
56
22
54
88
113
33
97
118
117
52
26
40
58
85
45
30
57
65
81
50
1
116
68
79
99
20
82
121
61
41
89
103
5
93
119
104
28
21
48
89
96
85
3
89
53
116
16
41
44
118
46
40
57
4
11
63
66
49
79
47
119
107
84
70
56
109
106
55
27
75
101
123
15
55
109
23
59
64
74
64
63
107
99
37
49
120
53
12
59
84
53
96
7
35
80
115
102
59
99
19
93
63
28
112
2
63
39
21
87
111
56
91
29
85
119
85
78
49
109
31
40
27
122
42
95
104
92
121
37
21
88
54
116
106
26
82
1
35
47
76
62
89
95
12
118
21
19
6
38
0
61
76
30
38
110
60
95
11
18
31
93
34
115
52
76
112
79
36
118
6
114
51
96
74
70
94
92
9
62
44
60
50
69
76
86
57
32
21
52
96
24
13
5
86
23
32
116
81
28
63
63
80
45
123
25
38
94
56
107
67
31
27
104
52
13
124
14
80
108
16
92
13
123
124
119
6
63
21
1
45
87
28
68
11
89
65
122
62
95
25
107
41
98
38
62
16
21
8
40
6
90
112
77
82
24
51
112
71
72
59
63
105
29
86
10
80
104
91
108
82
17
118
85
20
70
39
37
46
70
88
45
19
102
115
104
106
44
105
99
56
111
78
92
21
72
123
110
92
87
41
112
35
100
24
98
113
20
113
77
38
115
8
87
3
7
80
26
113
83
73
84
91
25
40
28
122
11
25
29
40
110
85
72
42
63
49
104
18
115
41
113
78
88
37
53
105
112
105
79
42
46
94
39
122
56
18
43
124
114
93
65
0
99
106
96
60
79
23
87
59
87
30
46
73
113
13
32
122
78
2
117
14
104
82
87
73
82
31
102
53
121
1
32
91
78
13
59
91
78
73
33
60
107
94
104
59
79
46
72
18
50
101
87
66
20
14
52
76
66
31
45
74
111
42
16
102
71
39
53
68
102
3
90
25
55
94
27
20
13
116
85
107
70
67
86
36
12
58
3
123
53
53
21
32
54
109
53
44
84
81
38
1
25
49
109
3
101
115
112
82
47
18
39
47
112
73
79
59
69
89
122
27
38
94
113
52
80
118
71
9
33
52
11
41
16
44
21
124
102
83
6
19
22
73
87
56
12
1
54
0
75
81
75
66
49
16
107
124
22
25
99
97
15
40
69
4
51
27
63
28
37
61
81
107
117
41
97
16
108
112
112
58
37
45
92
37
46
86
59
25
42
104
74
71
67
80
63
89
94
111
79
101
115
0
67
6
19
32
77
97
28
37
59
81
38
1
55
74
58
77
42
109
8
68
109
117
20
80
69
30
0
103
46
97
13
61
29
66
80
54
24
98
69
53
31
1
22
102
60
106
112
80
71
71
19
102
73
40
25
27
94
70
56
95
27
124
56
32
10
114
104
96
103
73
67
58
95
114
24
57
50
3
49
54
4
44
105
63
117
53
11
32
95
51
88
47
2
86
98
60
89
62
93
25
14
118
32
7
1
86
100
90
62
116
86
98
62
123
68
107
68
102
20
57
70
108
48
83
48
10
52
76
64
118
15
95
17
38
58
86
26
14
104
117
114
59
60
9
50
2
95
15
57
108
46
93
117
121
48
117
91
95
93
44
113
49
87
3
103
54
110
58
65
102
53
64
71
85
43
39
92
73
109
114
8
55
63
53
21
10
119
100
72
95
34
79
29
120
52
44
37
115
122
10
60
61
62
35
81
22
98
89
39
89
16
2
72
38
118
56
75
7
65
12
68
82
72
14
32
60
60
60
98
108
79
36
60
103
108
103
80
107
67
73
75
16
99
86
45
9
37
16
44
27
57
92
41
41
65
18
46
124
93
46
57
3
53
122
59
75
114
54
75
38
6
119
26
77
71
123
70
88
96
79
56
13
102
66
32
96
124
9
96
92
84
77
32
101
28
45
99
97
9
124
46
15
9
6
105
0
52
49
124
0
39
48
36
31
58
105
34
119
86
90
27
84
15
85
86
57
115
63
51
120
63
63
10
84
77
46
61
64
62
67
121
70
94
64
14
90
108
26
47
117
59
26
79
98
30
98
11
45
26
89
70
0
119
21
57
118
32
22
98
118
92
70
11
67
81
48
93
73
30
15
24
54
102
7
62
49
35
64
46
9
43
18
54
101
53
11
74
16
0
38
79
100
51
45
75
55
51
93
9
50
78
66
45
76
49
54
43
124
89
58
105
82
106
92
17
6
6
36
68
60
41
108
73
0
12
85
43
52
54
26
21
99
87
55
106
78
77
30
100
14
114
95
100
106
8
89
91
10
67
30
76
85
18
55
116
112
68
17
19
90
27
62
71
107
53
20
54
58
52
54
20
86
32
106
16
28
92
72
105
75
52
9
98
115
81
114
32
36
4
82
23
95
4
18
60
0
7
73
38
119
99
122
41
89
45
80
71
109
105
22
41
28
11
26
90
83
18
92
85
39
79
78
8
26
39
67
111
120
0
23
41
68
11
9
23
23
74
42
105
74
84
34
6
91
63
27
8
14
93
119
102
90
51
110
119
97
119
3
87
97
70
50
34
62
49
102
104
101
71
14
105
104
114
102
12
73
14
2
17
55
29
52
118
117
112
25
24
101
52
86
23
98
0
111
16
104
98
116
7
23
15
35
6
45
106
13
102
41
73
55
113
14
20
48
46
81
99
109
66
35
17
93
26
104
92
120
107
65
30
110
50
84
85
40
35
44
77
93
12
75
77
94
86
20
49
82
84
14
45
54
120
104
20
9
110
102
119
44
103
8
113
115
28
107
26
66
53
3
47
85
99
58
11
86
21
60
15
103
101
7
121
12
28
42
21
20
52
7
19
33
67
104
52
15
77
30
100
31
124
98
29
88
5
43
78
86
89
0
99
13
12
88
26
50
61
41
73
12
30
19
0
124
77
77
2
62
2
105
115
67
112
35
26
8
114
41
103
59
47
21
29
12
111
60
36
15
89
85
17
12
58
120
82
52
105
109
26
118
18
19
61
100
92
59
111
117
106
32
103
53
74
47
102
6
77
43
38
45
16
37
50
51
108
68
106
2
42
46
68
98
93
54
85
32
121
122
89
53
55
84
81
123
12
70
21
6
6
106
116
93
60
69
24
95
106
77
40
33
98
108
52
16
24
72
26
67
19
60
99
3
82
39
21
49
94
18
49
67
57
62
85
102
53
83
105
6
56
103
63
66
104
24
118
6
19
62
2
42
89
10
94
77
74
45
96
1
69
10
103
124
47
111
120
11
86
80
80
124
112
51
58
4
120
104
39
93
59
122
122
106
54
3
29
73
44
78
61
21
123
100
120
5
42
54
105
116
2
114
27
56
8
36
57
22
83
7
38
46
89
4
39
98
86
11
112
119
50
37
76
120
36
54
116
16
74
109
68
114
44
41
3
104
58
31
104
52
39
115
64
10
99
66
107
88
96
39
92
103
107
64
110
103
61
16
46
41
35
38
68
117
25
83
69
79
88
85
90
33
60
51
43
98
118
3
73
24
118
1
39
110
67
77
6
66
19
8
8
77
118
119
93
76
86
13
23
102
20
88
4
59
109
42
50
3
122
1
73
43
94
63
34
40
83
92
29
36
118
108
116
82
60
103
81
1
78
122
80
93
38
116
18
0
13
114
16
62
24
35
46
31
16
88
40
62
93
69
15
2
93
62
31
3
61
40
4
52
117
74
109
98
57
18
86
105
41
70
14
74
88
89
28
65
80
80
109
68
54
60
40
116
80
90
30
86
103
104
80
43
116
20
98
4
34
31
76
59
36
91
15
76
4
3
53
76
96
19
43
52
94
10
111
77
79
7
41
13
79
51
84
76
43
88
88
32
41
23
5
93
12
52
52
99
44
107
30
38
90
7
118
54
100
18
38
105
60
2
14
103
31
11
52
27
115
15
108
85
114
23
32
116
35
18
34
81
8
19
56
108
76
43
100
88
102
66
33
44
124
115
25
106
76
20
65
20
41
12
19
18
37
16
45
84
104
13
38
86
68
96
98
98
13
21
44
82
43
116
17
111
62
25
34
14
81
37
67
33
86
82
91
113
11
31
52
14
84
35
11
71
77
63
52
10
108
120
13
122
6
57
20
18
71
28
5
53
49
30
94
119
40
23
78
81
121
86
93
25
100
16
54
80
39
51
60
111
22
67
18
17
79
28
21
24
62
28
48
77
119
44
37
46
19
121
103
21
118
65
63
42
123
16
114
15
26
19
102
43
112
109
49
9
24
85
89
72
74
47
102
7
98
96
1
47
107
88
68
31
58
123
35
71
67
104
21
111
44
104
95
48
25
115
19
77
65
3
99
92
119
124
0
6
64
33
50
54
124
56
98
92
105
111
107
14
55
33
80
108
38
3
5
65
78
24
52
44
87
10
119
14
118
45
25
102
121
114
34
22
8
24
31
71
33
62
111
74
43
43
120
105
6
11
82
76
14
113
124
41
82
63
104
85
64
57
2
9
51
97
66
76
101
94
110
90
113
54
103
113
1
39
38
14
61
95
0
88
105
98
117
35
72
89
34
87
23
71
12
4
121
92
12
54
73
14
41
18
11
27
85
54
84
84
54
37
42
59
37
3
69
13
107
40
75
22
99
122
74
107
71
108
88
103
107
103
2
39
49
94
23
28
34
92
75
23
7
49
0
80
72
77
28
97
106
72
30
23
64
25
123
29
83
63
120
87
52
79
68
43
59
19
48
53
46
9
55
54
44
61
32
31
99
69
55
2
112
24
80
20
56
104
112
37
108
63
85
114
66
43
80
88
14
27
61
54
31
119
120
120
21
74
29
20
15
39
84
93
110
9
36
42
3
44
73
92
37
91
1
12
76
8
104
18
45
3
0
38
56
13
104
68
115
114
112
104
73
91
31
113
4
124
92
33
87
47
91
88
29
120
35
7
24
20
18
105
24
29
85
76
0
121
106
124
67
35
71
65
50
65
35
16
50
63
7
55
69
29
42
63
87
61
15
31
39
74
23
116
9
20
52
21
8
50
97
52
116
47
85
53
34
74
120
40
32
33
29
66
1
16
23
20
69
41
78
110
97
93
40
84
92
75
76
55
49
100
61
49
96
58
37
123
60
58
56
53
15
32
112
65
34
27
100
41
48
81
101
58
86
18
7
77
0
14
53
54
80
90
93
25
8
100
69
84
60
71
62
107
71
73
87
7
39
51
60
30
91
100
49
94
37
56
62
95
93
99
37
108
34
102
57
27
8
49
85
19
56
4
68
38
77
12
83
111
15
101
15
103
47
86
93
51
124
113
16
85
112
121
103
119
114
44
109
100
1
119
7
53
64
3
89
15
78
7
6
84
100
57
29
100
96
26
66
83
1
80
45
18
106
95
17
37
116
112
22
73
52
58
123
74
112
49
118
38
89
17
9
87
25
28
16
96
36
66
36
76
105
68
92
53
67
101
4
52
84
17
96
81
57
91
38
92
28
44
86
71
6
56
106
119
23
5
33
87
74
70
79
19
34
84
69
109
86
75
63
63
13
100
10
3
31
99
33
28
9
22
61
86
69
69
23
106
11
104
52
94
65
112
75
5
86
72
35
75
121
22
102
12
124
14
20
3
18
94
59
70
76
110
49
43
62
84
101
74
60
17
48
90
89
61
67
13
23
59
81
28
72
84
102
101
44
49
4
28
86
64
119
52
14
36
2
18
33
83
61
24
37
42
71
66
101
30
68
35
100
112
18
78
78
53
17
77
104
69
66
96
105
15
24
30
77
123
7
48
44
46
48
116
103
68
122
45
29
112
78
4
89
111
57
58
49
62
116
123
117
83
7
123
5
41
77
15
109
109
113
37
65
51
31
0
68
51
72
9
5
105
45
82
110
110
94
67
44
75
51
66
98
45
3
48
6
55
49
50
74
85
5
9
82
95
80
53
89
9
111
98
100
57
121
33
53
88
112
18
1
90
90
112
122
111
107
104
37
16
64
76
39
90
2
88
59
63
5
45
80
4
51
112
121
40
77
70
95
34
39
88
109
77
39
80
17
15
28
105
14
41
86
52
46
65
120
64
16
23
74
3
81
46
93
113
67
50
93
78
49
45
1
40
27
92
68
88
9
72
36
49
16
12
54
54
55
87
45
58
40
5
116
37
114
51
93
90
26
114
60
63
51
24
100
66
78
120
0
57
124
96
109
71
24
75
38
79
89
93
103
19
41
82
93
90
108
1
72
74
27
110
93
30
94
66
115
112
30
27
60
123
65
90
55
89
66
29
56
108
85
32
42
27
119
73
70
90
120
56
60
2
56
109
30
73
68
40
48
10
16
54
8
82
21
71
6
62
94
8
101
46
91
112
11
73
110
41
28
49
12
52
116
2
100
97
94
121
62
36
56
28
16
14
10
115
96
62
75
109
58
72
8
90
14
41
41
33
34
26
118
65
1
13
110
104
57
38
102
54
32
73
24
122
87
99
47
92
31
94
106
40
13
64
102
32
82
80
4
78
99
102
105
71
52
72
85
71
22
39
59
11
1
117
24
113
61
2
24
44
16
92
38
95
48
74
7
101
101
31
38
0
86
30
74
103
36
7
108
105
10
87
77
27
88
118
4
39
31
106
4
11
117
21
57
77
44
69
69
55
117
8
1
89
45
41
70
25
86
79
76
101
18
4
87
60
11
108
120
22
52
21
86
15
37
52
75
6
36
68
23
118
117
20
121
60
43
70
28
49
33
47
90
122
56
105
68
24
37
116
64
40
36
73
104
12
118
19
70
25
6
77
66
46
7
30
1
47
81
51
104
110
64
76
97
32
68
49
35
82
67
80
44
90
30
98
86
98
70
41
79
118
49
32
85
75
82
108
9
107
91
59
46
27
58
72
14
105
25
47
75
1
41
4
41
44
100
107
102
70
104
4
106
3
79
41
93
88
83
90
92
75
91
0
9
56
64
81
82
107
124
124
35
40
121
10
11
108
19
59
99
15
55
21
13
18
50
95
33
84
6
13
3
55
69
58
33
122
104
89
113
15
4
80
28
15
54
46
7
58
57
99
63
72
66
16
118
87
7
91
75
3
43
1
41
52
12
0
14
18
13
84
71
80
12
19
90
23
83
33
65
41
79
122
16
107
17
4
90
56
27
31
112
50
105
86
82
6
102
57
73
93
89
13
17
116
15
101
26
86
79
74
122
15
97
29
101
51
14
102
77
2
42
18
45
36
46
91
59
15
95
97
97
50
99
69
23
20
117
51
111
100
68
88
58
55
103
99
31
17
4
106
23
16
0
87
3
64
1
71
17
78
113
61
7
71
78
107
43
57
20
53
25
74
35
80
30
112
44
63
105
117
121
17
91
35
43
99
121
105
51
92
17
40
71
55
41
38
91
94
99
14
55
45
46
67
72
13
93
97
52
8
67
20
107
92
2
111
78
70
108
14
84
70
71
74
6
12
116
101
28
110
58
67
91
115
0
111
25
106
106
117
29
45
58
45
94
103
5
81
106
59
116
29
104
116
77
20
38
5
39
82
38
44
21
5
96
73
76
24
86
67
47
36
50
59
28
68
99
101
65
2
0
61
12
7
102
20
45
33
67
42
116
59
102
68
76
10
36
32
37
12
88
32
85
24
118
57
106
26
43
70
51
75
63
45
30
46
33
63
68
121
108
27
118
111
110
69
33
89
54
1
45
100
61
100
61
7
65
115
101
94
80
91
2
48
35
27
88
83
15
68
94
99
46
113
28
94
59
55
113
71
75
44
37
28
69
116
73
45
102
83
55
7
97
99
111
89
90
28
97
61
88
24
63
66
117
37
96
100
62
14
30
104
77
58
47
50
82
25
73
114
5
118
32
119
103
89
69
30
7
96
87
3
95
73
52
50
60
110
49
69
78
1
59
82
115
106
115
101
81
10
62
22
61
91
66
22
72
115
109
66
105
20
92
18
106
88
75
3
13
41
34
42
67
65
48
7
2
106
5
38
85
91
102
89
2
84
3
19
102
58
61
64
107
88
73
67
13
74
50
89
51
121
61
14
53
67
123
88
29
101
32
26
10
51
12
68
82
49
61
50
101
82
12
20
7
36
27
120
25
75
66
120
11
88
113
0
98
6
70
6
15
40
0
54
75
74
101
42
83
26
118
93
1
80
8
7
77
54
82
62
120
44
3
79
115
78
4
99
61
122
38
27
25
5
7
82
61
23
85
49
72
64
24
47
90
35
88
113
14
17
71
88
27
108
70
89
62
2
64
108
99
74
13
86
71
54
88
124
120
1
52
6
6
30
11
67
120
122
23
20
1
109
54
38
90
87
124
20
25
94
45
24
61
36
82
57
121
119
13
55
48
124
67
10
62
29
117
56
27
29
61
61
107
95
80
85
27
6
96
12
56
96
96
12
12
60
7
27
94
14
97
75
75
0
11
8
70
44
70
47
100
33
111
45
26
69
21
63
64
68
73
22
123
3
21
16
73
21
44
0
104
46
0
33
112
7
60
0
122
55
112
86
67
80
23
32
119
30
29
92
38
51
48
4
65
90
75
30
14
4
35
70
110
123
111
19
115
89
5
14
8
108
24
46
93
43
31
106
67
58
16
107
26
97
24
10
66
91
99
39
58
119
65
96
19
39
3
101
13
91
114
49
87
118
44
109
42
26
24
53
102
116
89
106
93
7
37
89
1
31
44
61
58
14
19
108
56
124
56
96
10
79
104
93
59
93
1
36
35
63
88
17
66
8
13
89
83
50
111
59
34
96
8
99
28
85
50
101
55
12
66
58
21
75
119
45
67
47
108
120
1
49
74
34
66
59
27
54
98
41
76
72
105
110
69
1
80
59
90
113
7
12
27
6
72
11
71
44
37
80
102
50
83
55
116
64
50
123
124
81
81
25
19
100
11
55
93
48
38
6
10
111
109
51
81
12
5
112
76
4
59
44
21
93
73
15
86
103
51
124
118
25
8
57
78
120
101
60
26
56
107
67
93
22
37
16
46
83
43
115
40
43
72
100
90
31
60
32
34
25
25
62
4
116
73
30
67
95
114
101
38
61
33
83
58
13
25
6
57
122
29
93
10
32
26
39
79
29
77
89
58
19
108
29
64
37
71
72
39
66
15
71
29
116
0
61
52
81
100
80
49
90
65
74
43
29
124
37
20
89
0
50
123
116
21
29
62
111
102
88
109
7
17
49
66
20
87
57
89
84
103
82
30
102
39
103
97
92
29
21
99
9
29
76
9
74
21
15
32
39
102
107
117
14
11
58
80
11
13
120
70
20
76
97
57
3
5
34
28
0
118
0
64
0
118
67
5
58
94
59
21
75
90
15
100
119
46
60
42
20
16
5
79
13
90
24
78
46
113
32
5
60
16
112
105
36
18
19
84
67
48
78
97
21
14
32
70
94
122
13
115
99
98
30
124
59
71
91
72
30
106
28
117
22
66
115
124
33
124
51
27
58
42
2
28
112
31
63
45
66
38
47
27
124
81
92
44
34
66
33
78
97
14
41
55
100
46
76
24
20
23
3
79
4
14
123
88
83
57
28
95
35
37
60
53
24
46
66
114
38
10
26
45
113
8
116
108
29
45
0
14
80
41
39
57
95
80
55
113
97
20
98
89
76
95
123
96
87
70
49
63
64
84
105
79
115
99
73
7
114
11
13
47
51
73
60
52
14
118
123
92
83
22
12
78
56
14
35
0
88
31
108
58
83
25
18
19
55
118
79
86
33
1
36
10
2
76
7
86
27
114
109
107
83
59
96
124
95
116
105
123
67
17
28
12
116
103
73
83
97
44
47
42
118
23
73
109
89
112
76
58
86
82
116
107
105
18
21
12
10
20
76
45
74
118
6
110
92
54
5
52
70
63
5
64
60
48
61
83
112
64
17
53
49
111
22
105
98
123
72
14
40
43
4
59
106
98
15
83
7
32
16
58
119
46
0
4
101
22
50
12
123
3
62
47
37
116
69
34
89
16
120
109
118
11
93
6
91
12
8
16
64
82
20
9
8
84
112
59
101
47
106
70
124
58
59
22
33
46
93
34
7
19
27
14
110
6
63
88
105
4
43
24
78
67
99
101
114
59
96
77
86
86
41
57
102
29
45
3
17
54
48
79
46
71
101
70
49
18
30
111
56
45
52
54
13
14
89
55
26
110
17
71
4
8
93
1
82
48
89
44
28
70
109
56
14
32
16
18
50
37
44
54
84
32
88
1
120
91
40
87
50
43
88
107
120
110
74
57
67
82
103
65
72
76
107
11
9
33
119
13
72
17
73
88
109
32
27
32
6
66
42
101
97
33
14
86
42
35
54
106
5
108
56
82
78
47
120
54
85
58
14
95
9
64
18
3
62
15
46
20
123
9
76
91
15
21
52
104
124
14
105
21
111
33
96
71
5
44
107
42
105
104
73
23
59
98
57
75
96
51
7
7
36
5
47
53
57
102
107
90
89
40
16
115
54
4
43
105
75
32
16
18
77
117
68
101
27
103
75
46
1
109
85
86
106
94
69
34
101
102
47
106
104
109
106
6
91
106
91
0
19
72
37
99
54
73
30
30
96
124
109
109
37
101
60
113
26
5
93
22
4
97
100
105
110
13
76
81
43
5
56
94
46
31
11
28
24
122
39
104
93
26
59
28
35
21
109
98
28
77
104
24
55
100
37
113
124
19
30
34
80
78
39
68
34
63
24
114
11
91
85
116
80
99
76
28
44
40
43
54
21
106
67
74
18
31
24
61
106
115
24
118
23
33
22
12
110
64
64
119
63
13
19
123
8
4
39
4
49
80
7
37
37
93
40
113
16
118
98
77
19
70
81
43
122
7
40
120
72
105
53
61
93
89
92
0
100
109
12
5
14
73
103
3
13
108
21
100
25
43
24
121
87
25
113
89
36
113
112
5
62
51
82
33
81
119
82
32
0
21
86
93
76
25
108
56
11
58
50
38
70
66
45
9
123
52
0
23
57
117
80
46
29
100
90
7
74
22
71
111
49
64
98
0
6
104
42
64
32
17
46
35
87
22
116
57
87
2
30
94
88
123
115
82
12
116
33
90
22
58
106
96
46
96
69
6
40
92
18
100
92
88
74
86
30
61
108
63
95
114
8
108
12
74
75
59
84
124
89
117
39
15
106
45
88
24
38
111
28
12
64
11
32
70
41
48
81
57
20
2
92
112
24
119
52
101
87
29
11
76
34
10
124
103
122
70
22
25
114
64
80
71
12
90
57
17
92
104
15
34
51
6
0
14
24
39
88
5
68
23
24
99
19
53
14
85
64
32
43
72
49
101
60
78
90
93
3
20
79
91
73
57
123
115
103
84
119
112
51
43
68
123
94
24
56
12
82
71
97
24
3
15
39
105
7
55
122
68
94
93
116
59
98
103
50
66
53
37
20
22
76
100
83
67
65
25
48
64
62
79
7
122
18
91
59
110
95
39
6
121
43
105
108
95
72
3
7
1
33
117
68
86
70
49
61
116
101
87
121
81
93
42
117
53
62
17
75
69
102
120
76
63
72
7
115
92
107
32
10
79
30
38
6
114
107
12
4
52
119
79
117
70
35
4
93
79
89
100
21
45
122
90
35
121
64
81
22
84
21
115
61
72
77
120
72
72
100
117
79
53
27
44
50
27
67
12
51
57
89
102
66
22
84
10
58
0
49
123
97
105
16
37
74
116
105
70
47
100
87
104
33
71
107
48
1
69
59
58
36
114
95
102
15
89
47
8
0
24
55
117
52
122
11
105
117
19
31
71
4
66
57
3
64
100
72
117
8
123
48
119
23
54
40
68
43
16
98
115
75
50
38
73
82
26
1
10
103
75
114
121
78
15
113
78
60
89
23
55
107
111
1
40
32
82
4
3
76
92
14
63
50
80
11
15
36
7
46
96
25
100
66
18
101
118
83
118
9
67
98
105
8
76
5
93
24
30
109
67
106
45
93
19
14
63
114
80
5
124
67
122
23
92
102
17
93
31
41
70
34
59
104
113
13
49
15
8
95
7
34
87
11
99
32
88
26
30
81
106
20
118
50
2
96
34
42
54
91
123
73
29
13
112
42
103
111
107
45
6
53
32
34
117
63
67
102
38
43
113
107
64
42
71
26
36
0
92
50
82
91
87
33
25
93
45
118
27
12
1
66
56
53
39
113
94
71
122
19
7
109
45
87
64
121
78
59
63
109
50
61
23
11
50
33
88
122
113
78
33
41
95
6
52
105
111
11
95
68
23
46
1
58
58
80
13
37
55
43
25
81
64
71
75
90
59
34
76
62
112
26
102
0
0
60
29
94
27
2
61
56
67
88
97
57
66
89
7
83
56
35
33
9
114
0
117
63
73
75
64
75
113
95
69
15
24
92
43
2
74
15
33
103
100
89
90
39
109
6
58
5
60
27
38
55
113
70
46
110
76
83
35
75
1
48
36
100
44
3
18
30
93
6
55
31
53
78
100
109
35
110
108
7
10
124
92
84
7
14
27
94
51
95
50
64
32
59
11
40
82
56
70
35
123
64
57
104
57
45
112
94
30
16
82
55
51
123
69
63
22
6
84
50
44
42
0
9
10
87
116
0
58
100
12
66
114
98
38
24
45
119
112
98
97
95
22
11
21
74
47
29
68
90
28
89
66
81
45
68
2
117
44
110
31
44
60
24
98
21
49
4
35
7
100
118
104
67
105
19
9
68
15
3
14
17
45
71
42
11
56
48
79
32
24
92
37
41
83
66
70
80
45
12
40
49
12
50
69
17
67
17
29
119
33
101
3
17
122
18
67
55
1
54
80
118
77
60
81
76
23
25
7
12
32
65
106
29
77
33
77
104
24
103
117
85
107
76
37
122
69
90
120
25
39
58
93
6
12
99
9
36
85
124
45
54
61
120
53
81
3
72
46
31
93
74
112
74
7
32
60
59
69
11
90
40
14
3
42
61
3
5
89
59
115
26
11
7
114
1
33
76
57
77
51
26
26
18
111
61
9
45
27
60
68
118
89
3
21
72
14
78
38
84
110
111
77
58
81
33
33
62
111
94
24
9
10
2
42
55
98
11
120
73
90
102
87
104
31
40
25
60
3
29
81
48
54
124
19
105
1
2
5
51
47
59
93
46
63
84
51
44
22
62
56
32
115
36
82
108
75
67
52
37
89
82
80
119
90
66
36
103
101
15
110
92
27
41
57
96
34
0
50
95
86
82
73
30
66
63
55
58
105
65
77
24
80
33
118
72
17
20
121
10
116
121
59
85
108
115
19
116
92
43
105
1
112
72
72
120
40
56
97
103
4
84
68
101
98
1
38
101
37
35
60
73
37
95
77
61
99
55
10
93
32
82
115
77
60
104
55
16
30
31
15
111
121
43
46
51
100
62
10
64
102
36
81
32
34
30
14
94
3
36
50
110
9
89
16
31
70
116
8
41
85
63
8
30
111
19
79
101
27
14
57
24
9
71
26
83
38
110
114
21
112
123
68
124
92
99
111
80
102
124
119
39
2
37
75
94
57
53
115
98
42
117
74
71
6
1
38
82
76
64
120
1
53
22
99
107
34
117
82
111
32
10
20
37
60
28
78
38
52
48
78
38
104
104
112
93
112
105
100
69
1
26
88
39
79
104
8
94
66
82
13
93
11
98
80
33
100
75
4
82
17
49
94
81
71
27
81
112
92
69
119
111
39
73
14
73
51
111
26
76
75
103
84
32
95
96
14
72
68
22
96
29
76
83
115
67
43
60
54
67
32
55
91
7
4
61
30
66
55
39
49
62
30
7
61
104
18
114
45
118
62
90
123
113
75
43
62
51
79
76
88
10
117
119
70
114
33
27
29
17
6
45
12
98
104
101
59
110
78
90
14
89
86
10
55
68
0
71
113
32
44
76
48
124
35
65
111
124
124
120
7
6
17
114
91
34
26
99
10
46
63
8
48
86
28
34
86
17
113
93
81
72
15
93
10
88
85
9
54
103
106
108
1
78
8
80
27
24
66
117
27
62
107
77
105
22
32
82
117
104
100
107
50
110
10
106
93
103
69
82
32
94
116
45
123
64
31
115
80
32
81
94
68
63
39
31
110
5
45
105
79
24
64
30
43
13
107
1
64
15
54
33
61
0
59
107
93
113
103
12
48
69
116
61
103
79
115
32
98
93
115
41
42
104
111
36
37
112
34
48
2
57
99
50
12
65
122
73
69
29
64
73
119
93
0
53
69
87
102
42
124
105
95
91
102
81
47
30
39
43
120
16
12
9
51
41
16
93
100
50
108
98
70
113
15
86
67
122
76
78
66
57
45
121
6
27
2
21
118
118
102
6
24
108
11
101
79
114
116
13
105
115
82
35
12
95
20
33
34
37
61
26
73
92
97
110
124
42
67
77
32
116
49
92
42
39
47
82
27
4
108
89
99
74
31
96
11
33
17
0
72
68
84
41
25
107
30
14
93
48
47
64
85
58
34
25
122
41
24
45
112
55
32
16
120
30
49
108
51
24
49
118
114
103
35
46
64
86
96
102
2
115
76
106
84
14
90
31
42
60
121
17
1
84
106
102
55
40
25
112
74
28
97
28
27
94
8
17
69
57
115
57
46
36
65
60
16
117
117
76
16
96
122
83
49
78
91
101
101
86
96
8
110
31
114
84
62
12
88
102
5
100
52
99
89
43
71
55
98
54
28
60
47
98
36
59
30
65
69
109
14
22
122
62
12
72
64
104
18
67
84
73
80
72
82
30
102
30
35
91
86
36
113
108
18
96
92
101
44
96
17
106
73
36
12
27
65
123
39
87
118
83
37
22
106
39
3
63
63
55
11
85
44
22
102
121
39
18
78
98
114
82
20
102
19
64
39
83
9
53
26
12
32
89
44
56
78
101
69
2
94
78
119
66
53
61
35
101
70
43
98
108
57
33
64
1
93
48
12
72
122
102
34
112
78
106
23
113
84
34
15
114
120
101
0
113
102
80
15
27
50
117
118
88
32
77
45
81
103
87
24
39
115
57
124
104
7
7
20
77
84
90
40
79
121
13
54
34
85
108
116
116
33
18
45
96
18
21
41
7
9
83
8
3
82
84
9
49
110
58
1
121
52
12
94
86
7
59
45
104
23
60
98
1
48
57
35
17
3
20
47
3
105
31
94
29
22
7
38
27
57
70
42
30
112
90
99
15
54
27
5
104
30
85
65
95
77
9
98
106
34
24
108
32
10
80
120
26
100
50
69
114
27
5
31
89
95
82
111
57
52
96
18
72
86
69
111
11
1
72
90
13
74
47
41
93
49
68
53
45
74
123
79
104
29
6
68
26
29
36
40
39
101
50
107
22
30
91
43
71
105
90
70
48
63
55
88
27
1
1
85
19
100
43
74
88
53
59
98
64
77
51
119
64
18
1
96
22
89
12
107
28
33
78
68
14
69
80
114
48
54
27
37
37
21
26
84
53
2
91
53
66
117
27
78
22
83
1
105
56
30
109
54
71
122
0
11
14
85
55
121
67
80
41
38
88
105
67
5
45
32
82
61
105
56
84
16
83
79
89
30
49
80
74
99
43
97
6
6
36
86
40
17
109
11
12
84
83
20
120
42
69
72
29
3
74
69
65
21
70
107
61
14
19
87
76
0
67
118
63
29
54
3
9
5
124
12
110
17
19
28
67
25
36
60
1
118
14
26
119
1
14
106
35
81
87
16
119
4
66
25
15
109
58
77
65
48
16
4
14
119
107
95
68
14
48
93
114
124
57
89
3
12
10
42
50
92
100
74
32
60
33
106
28
75
87
104
100
114
113
12
57
118
30
59
116
83
40
117
95
47
123
15
102
57
59
66
6
58
107
106
117
16
48
27
21
3
32
12
99
100
21
1
15
48
70
117
106
70
81
19
29
123
102
93
81
95
8
64
8
39
92
121
61
23
96
20
64
117
15
104
99
69
96
16
1
16
19
54
101
12
39
108
71
33
100
106
124
71
69
106
43
84
102
45
95
65
29
118
83
74
20
52
9
11
25
123
5
83
54
107
10
105
42
48
91
85
115
65
5
28
34
106
115
17
89
83
43
35
15
74
86
74
99
82
43
10
100
2
38
47
101
89
36
83
19
19
10
3
79
95
93
86
113
100
24
112
79
85
23
20
15
90
12
51
57
104
51
118
92
124
116
101
97
69
36
86
27
52
56
15
79
46
64
59
96
5
0
12
26
25
69
81
93
92
68
78
18
65
53
87
85
37
40
118
42
100
23
7
67
47
124
1
69
80
11
60
95
91
37
12
110
118
1
24
16
115
110
96
6
105
114
81
9
118
50
63
112
16
51
124
68
57
64
79
91
47
93
54
115
54
55
115
122
0
87
66
69
72
3
82
42
41
13
57
54
102
86
45
38
73
113
14
109
17
32
57
95
8
40
37
33
6
71
56
99
77
22
22
26
42
15
54
52
15
29
29
18
70
6
88
65
105
28
46
46
113
14
36
43
15
49
103
105
67
24
66
36
109
31
91
78
25
79
103
97
100
60
106
83
85
0
84
113
4
40
102
8
36
107
53
117
117
73
46
1
98
66
118
84
107
119
13
76
24
81
95
30
37
41
30
39
1
72
57
30
118
63
60
21
110
43
26
15
95
26
1
71
86
45
22
25
12
5
25
54
78
11
58
105
59
84
62
1
104
92
105
94
6
65
20
45
27
109
42
47
58
83
14
99
47
31
104
102
29
96
10
88
43
89
67
91
93
124
62
70
21
1
124
53
111
121
65
110
71
97
13
4
13
26
119
116
77
8
69
36
81
85
5
112
8
32
65
106
44
48
23
102
83
21
59
23
104
49
47
109
66
113
97
31
37
98
38
50
79
85
23
99
2
1
53
47
6
3
93
87
4
51
17
83
30
86
66
107
101
22
81
13
10
4
69
4
75
8
22
40
123
76
113
47
93
93
55
72
119
111
44
122
89
72
44
11
25
121
112
101
83
58
7
50
65
97
20
106
109
107
121
0
88
109
94
105
16
58
95
101
101
35
86
58
39
19
34
77
59
24
59
0
115
18
84
87
83
79
63
27
65
118
80
96
58
16
31
91
102
108
51
40
4
89
6
77
112
36
91
33
48
5
85
111
44
103
86
27
54
111
73
53
25
101
62
9
28
39
91
30
10
57
106
25
88
41
33
63
116
13
13
101
103
58
44
38
26
76
39
123
62
96
71
111
75
0
69
108
78
67
82
124
55
71
2
17
66
79
33
107
7
41
122
89
71
73
79
57
73
122
29
65
120
75
91
88
28
83
119
24
101
79
7
67
45
52
107
111
87
51
6
122
79
104
102
77
119
22
96
54
34
2
88
69
122
60
20
14
6
4
52
91
69
106
59
122
96
0
113
64
115
19
14
37
84
27
47
66
83
61
28
15
85
45
64
35
116
91
97
68
113
87
74
24
122
5
39
110
96
90
20
119
115
31
63
25
10
101
63
101
47
96
14
64
90
105
56
86
10
60
90
24
107
11
4
36
67
30
109
88
58
45
49
98
6
69
42
67
101
78
89
55
80
102
43
13
37
9
8
92
58
89
5
43
84
59
6
21
46
4
83
92
12
31
61
43
18
34
72
20
35
8
57
17
32
73
117
83
31
123
10
39
32
19
64
79
123
45
97
95
7
25
2
104
82
42
45
12
108
27
16
42
25
27
83
72
2
49
115
120
37
108
100
26
59
95
60
92
111
122
9
99
52
30
16
49
36
14
71
22
42
47
6
38
91
52
114
39
83
42
52
32
5
118
62
92
47
95
83
50
19
58
123
58
121
29
100
10
115
124
46
50
4
41
49
14
78
72
87
24
97
106
6
67
105
63
117
26
83
54
73
39
113
93
36
41
108
50
123
6
63
63
83
121
62
110
70
124
52
57
113
76
65
17
97
56
38
81
41
9
24
66
10
33
83
1
35
108
91
118
86
100
110
59
13
23
104
73
95
23
69
7
89
102
16
60
9
115
10
62
83
28
29
43
82
20
112
68
13
73
99
69
69
23
106
14
112
44
30
16
61
52
100
57
26
13
95
107
3
58
53
59
38
102
47
58
122
110
123
36
105
40
12
72
95
90
34
103
121
124
63
25
53
118
43
11
69
101
67
33
39
24
111
8
54
2
29
35
33
6
94
79
39
6
55
2
3
46
98
95
24
22
48
1
33
2
24
115
86
102
53
99
56
120
77
104
103
113
91
41
39
120
122
26
27
73
62
91
28
101
84
84
79
94
81
63
89
93
68
5
22
9
85
39
106
93
111
46
25
93
82
82
6
99
12
43
108
15
54
33
64
56
33
43
36
114
67
25
23
84
115
29
58
7
123
115
41
120
100
46
64
6
98
100
121
116
84
76
54
120
44
29
49
14
112
85
11
44
34
45
1
46
62
11
49
9
26
57
19
39
75
86
84
33
118
47
3
24
18
44
111
55
85
44
101
87
80
19
66
27
96
111
70
35
92
117
53
22
13
77
97
123
56
26
77
110
83
90
79
58
65
29
32
51
10
32
59
88
36
53
28
84
110
4
37
22
61
39
80
82
91
118
31
24
60
21
14
16
26
93
124
107
74
120
73
108
39
58
33
121
105
51
4
122
115
71
44
23
45
109
120
51
67
8
24
119
99
43
20
17
7
60
2
100
43
63
109
1
73
10
36
76
54
85
20
58
11
21
29
56
11
95
120
71
7
55
34
46
111
16
119
70
94
95
28
111
106
29
92
105
79
40
61
38
49
14
77
101
104
22
54
57
111
114
41
39
6
116
5
76
11
48
39
38
94
76
13
108
1
54
84
46
87
118
112
99
18
107
50
16
85
6
19
62
94
69
117
99
124
8
96
36
63
88
55
20
117
110
59
58
106
83
123
100
75
72
16
91
53
55
88
61
0
16
90
24
71
36
5
103
124
123
123
41
104
89
68
56
37
96
116
68
43
27
61
36
81
122
91
68
75
32
31
20
57
17
37
31
2
64
50
32
49
78
91
41
33
118
124
117
79
22
14
108
104
91
108
104
110
123
118
98
41
51
47
113
105
1
24
37
46
37
78
69
123
26
51
93
60
96
57
19
122
66
116
3
25
66
110
8
103
34
86
91
71
98
