1413,burchak,paul,1,false
1487,dovdopol,yarik,5,true
1337,ilyin,max,6,true
1553,kolomiets,den,2,false
1239,masluk,ulia,1,false
1923,korsakova,alina,4,true
1234,dorofeev,andryi,5,true
1744,andrievski,dima,1,false
1653,brus,urchik,3,false
1300,xxx,yyy,3,false
1378,yyy,xxx,3,true
1400,xxx,zzz,5,false
1390,zzz,xxx,4,false
1450,zzz,yyy,5,true
1800,yyy,zzz,2,true
1400,xxx,zzz,5,false
